testbench/waveform.vcd
$version Generated by VerilatedVcd $end
$date Fri Apr 28 23:36:51 2023 $end
$timescale 1ps $end

 $scope module TOP $end
  $var wire 32 C# PC [31:0] $end
  $var wire 32 G# addr [31:0] $end
  $var wire  1 @# clk $end
  $var wire  1 J# en $end
  $var wire 32 B# inst [31:0] $end
  $var wire  1 E# inst_ready $end
  $var wire  1 D# pc_valid $end
  $var wire 32 F# rdata [31:0] $end
  $var wire  1 A# reset $end
  $var wire 32 H# wdata [31:0] $end
  $var wire  1 K# we $end
  $var wire  4 I# wmask [3:0] $end
  $scope module Top $end
   $var wire 32 C# PC [31:0] $end
   $var wire 32 G# addr [31:0] $end
   $var wire 32 v bypass_reg1 [31:0] $end
   $var wire 32 w bypass_reg2 [31:0] $end
   $var wire  1 @# clk $end
   $var wire 32 S difftest_Inst [31:0] $end
   $var wire 32 T difftest_PC [31:0] $end
   $var wire 103 L difftest_bus [102:0] $end
   $var wire  1 P difftest_inst_valid $end
   $var wire 32 U difftest_result [31:0] $end
   $var wire  1 R difftest_wreg_en $end
   $var wire  5 Q difftest_wreg_index [4:0] $end
   $var wire 32 > dnpc [31:0] $end
   $var wire  1 J# en $end
   $var wire 219 2 ex_bus [218:0] $end
   $var wire 38 : ex_bypass [37:0] $end
   $var wire  1 M# ex_right_ready $end
   $var wire  1 9 ex_right_valid $end
   $var wire  1 < flush $end
   $var wire 200 & id_bus [199:0] $end
   $var wire  1 M# id_right_ready $end
   $var wire  1 1 id_right_valid $end
   $var wire 64 # if_bus [63:0] $end
   $var wire  1 M# if_right_ready $end
   $var wire  1 % if_right_valid $end
   $var wire 32 B# inst [31:0] $end
   $var wire  1 E# inst_ready $end
   $var wire  1 = is_branch $end
   $var wire 103 ? mem_bus [102:0] $end
   $var wire 38 D mem_bypass [37:0] $end
   $var wire  1 M# mem_right_ready $end
   $var wire  1 C mem_right_valid $end
   $var wire  1 D# pc_valid $end
   $var wire 32 F# rdata [31:0] $end
   $var wire 32 / reg_data1 [31:0] $end
   $var wire 32 0 reg_data2 [31:0] $end
   $var wire  5 - reg_index1 [4:0] $end
   $var wire  5 . reg_index2 [4:0] $end
   $var wire 32 V regs[0] [31:0] $end
   $var wire 32 ` regs[10] [31:0] $end
   $var wire 32 a regs[11] [31:0] $end
   $var wire 32 b regs[12] [31:0] $end
   $var wire 32 c regs[13] [31:0] $end
   $var wire 32 d regs[14] [31:0] $end
   $var wire 32 e regs[15] [31:0] $end
   $var wire 32 f regs[16] [31:0] $end
   $var wire 32 g regs[17] [31:0] $end
   $var wire 32 h regs[18] [31:0] $end
   $var wire 32 i regs[19] [31:0] $end
   $var wire 32 W regs[1] [31:0] $end
   $var wire 32 j regs[20] [31:0] $end
   $var wire 32 k regs[21] [31:0] $end
   $var wire 32 l regs[22] [31:0] $end
   $var wire 32 m regs[23] [31:0] $end
   $var wire 32 n regs[24] [31:0] $end
   $var wire 32 o regs[25] [31:0] $end
   $var wire 32 p regs[26] [31:0] $end
   $var wire 32 q regs[27] [31:0] $end
   $var wire 32 r regs[28] [31:0] $end
   $var wire 32 s regs[29] [31:0] $end
   $var wire 32 X regs[2] [31:0] $end
   $var wire 32 t regs[30] [31:0] $end
   $var wire 32 u regs[31] [31:0] $end
   $var wire 32 Y regs[3] [31:0] $end
   $var wire 32 Z regs[4] [31:0] $end
   $var wire 32 [ regs[5] [31:0] $end
   $var wire 32 \ regs[6] [31:0] $end
   $var wire 32 ] regs[7] [31:0] $end
   $var wire 32 ^ regs[8] [31:0] $end
   $var wire 32 _ regs[9] [31:0] $end
   $var wire  1 A# reset $end
   $var wire 103 F wb_bus [102:0] $end
   $var wire 38 J wb_bypass [37:0] $end
   $var wire 32 H# wdata [31:0] $end
   $var wire  1 K# we $end
   $var wire  4 I# wmask [3:0] $end
   $scope module Bypass $end
    $var wire 32 v bypass_reg1 [31:0] $end
    $var wire 32 w bypass_reg2 [31:0] $end
    $var wire 38 : ex_bypass [37:0] $end
    $var wire  1 x ex_src1 $end
    $var wire  1 { ex_src2 $end
    $var wire  5 - index1 [4:0] $end
    $var wire  5 . index2 [4:0] $end
    $var wire 38 D mem_bypass [37:0] $end
    $var wire  1 y mem_src1 $end
    $var wire  1 | mem_src2 $end
    $var wire 32 / reg1 [31:0] $end
    $var wire 32 0 reg2 [31:0] $end
    $var wire 38 J wb_bypass [37:0] $end
    $var wire  1 z wb_src1 $end
    $var wire  1 } wb_src2 $end
   $upscope $end
   $scope module DifftestGRegState $end
    $var wire  1 @# clock $end
    $var wire  8 N# coreid [7:0] $end
    $var wire 64 O# gpr_0 [63:0] $end
    $var wire 64 ~ gpr_1 [63:0] $end
    $var wire 64 2! gpr_10 [63:0] $end
    $var wire 64 4! gpr_11 [63:0] $end
    $var wire 64 6! gpr_12 [63:0] $end
    $var wire 64 8! gpr_13 [63:0] $end
    $var wire 64 :! gpr_14 [63:0] $end
    $var wire 64 <! gpr_15 [63:0] $end
    $var wire 64 >! gpr_16 [63:0] $end
    $var wire 64 @! gpr_17 [63:0] $end
    $var wire 64 B! gpr_18 [63:0] $end
    $var wire 64 D! gpr_19 [63:0] $end
    $var wire 64 "! gpr_2 [63:0] $end
    $var wire 64 F! gpr_20 [63:0] $end
    $var wire 64 H! gpr_21 [63:0] $end
    $var wire 64 J! gpr_22 [63:0] $end
    $var wire 64 L! gpr_23 [63:0] $end
    $var wire 64 N! gpr_24 [63:0] $end
    $var wire 64 P! gpr_25 [63:0] $end
    $var wire 64 R! gpr_26 [63:0] $end
    $var wire 64 T! gpr_27 [63:0] $end
    $var wire 64 V! gpr_28 [63:0] $end
    $var wire 64 X! gpr_29 [63:0] $end
    $var wire 64 $! gpr_3 [63:0] $end
    $var wire 64 Z! gpr_30 [63:0] $end
    $var wire 64 \! gpr_31 [63:0] $end
    $var wire 64 &! gpr_4 [63:0] $end
    $var wire 64 (! gpr_5 [63:0] $end
    $var wire 64 *! gpr_6 [63:0] $end
    $var wire 64 ,! gpr_7 [63:0] $end
    $var wire 64 .! gpr_8 [63:0] $end
    $var wire 64 0! gpr_9 [63:0] $end
   $upscope $end
   $scope module DifftestInstrCommit $end
    $var wire  5 R# TLBFILL_index [4:0] $end
    $var wire  1 @# clock $end
    $var wire  8 N# coreid [7:0] $end
    $var wire 32 S# csr_data [31:0] $end
    $var wire  1 Q# csr_rstat $end
    $var wire  8 N# index [7:0] $end
    $var wire 32 S instr [31:0] $end
    $var wire  1 Q# is_CNTinst $end
    $var wire  1 Q# is_TLBFILL $end
    $var wire 64 ^! pc [63:0] $end
    $var wire  1 Q# skip $end
    $var wire 64 O# timer_64_value [63:0] $end
    $var wire  1 P valid $end
    $var wire 64 a! wdata [63:0] $end
    $var wire  8 `! wdest [7:0] $end
    $var wire  1 R wen $end
   $upscope $end
   $scope module Regfile $end
    $var wire  1 @# clk $end
    $var wire 32 / data1 [31:0] $end
    $var wire 32 0 data2 [31:0] $end
    $var wire  5 - reg_index1 [4:0] $end
    $var wire  5 . reg_index2 [4:0] $end
    $var wire  1 A# reset $end
    $var wire 32 (" rf[0] [31:0] $end
    $var wire 32 2" rf[10] [31:0] $end
    $var wire 32 3" rf[11] [31:0] $end
    $var wire 32 4" rf[12] [31:0] $end
    $var wire 32 5" rf[13] [31:0] $end
    $var wire 32 6" rf[14] [31:0] $end
    $var wire 32 7" rf[15] [31:0] $end
    $var wire 32 8" rf[16] [31:0] $end
    $var wire 32 9" rf[17] [31:0] $end
    $var wire 32 :" rf[18] [31:0] $end
    $var wire 32 ;" rf[19] [31:0] $end
    $var wire 32 )" rf[1] [31:0] $end
    $var wire 32 <" rf[20] [31:0] $end
    $var wire 32 =" rf[21] [31:0] $end
    $var wire 32 >" rf[22] [31:0] $end
    $var wire 32 ?" rf[23] [31:0] $end
    $var wire 32 @" rf[24] [31:0] $end
    $var wire 32 A" rf[25] [31:0] $end
    $var wire 32 B" rf[26] [31:0] $end
    $var wire 32 C" rf[27] [31:0] $end
    $var wire 32 D" rf[28] [31:0] $end
    $var wire 32 E" rf[29] [31:0] $end
    $var wire 32 *" rf[2] [31:0] $end
    $var wire 32 F" rf[30] [31:0] $end
    $var wire 32 G" rf[31] [31:0] $end
    $var wire 32 +" rf[3] [31:0] $end
    $var wire 32 ," rf[4] [31:0] $end
    $var wire 32 -" rf[5] [31:0] $end
    $var wire 32 ." rf[6] [31:0] $end
    $var wire 32 /" rf[7] [31:0] $end
    $var wire 32 0" rf[8] [31:0] $end
    $var wire 32 1" rf[9] [31:0] $end
    $var wire 32 f! rf_o[0] [31:0] $end
    $var wire 32 p! rf_o[10] [31:0] $end
    $var wire 32 q! rf_o[11] [31:0] $end
    $var wire 32 r! rf_o[12] [31:0] $end
    $var wire 32 s! rf_o[13] [31:0] $end
    $var wire 32 t! rf_o[14] [31:0] $end
    $var wire 32 u! rf_o[15] [31:0] $end
    $var wire 32 v! rf_o[16] [31:0] $end
    $var wire 32 w! rf_o[17] [31:0] $end
    $var wire 32 x! rf_o[18] [31:0] $end
    $var wire 32 y! rf_o[19] [31:0] $end
    $var wire 32 g! rf_o[1] [31:0] $end
    $var wire 32 z! rf_o[20] [31:0] $end
    $var wire 32 {! rf_o[21] [31:0] $end
    $var wire 32 |! rf_o[22] [31:0] $end
    $var wire 32 }! rf_o[23] [31:0] $end
    $var wire 32 ~! rf_o[24] [31:0] $end
    $var wire 32 !" rf_o[25] [31:0] $end
    $var wire 32 "" rf_o[26] [31:0] $end
    $var wire 32 #" rf_o[27] [31:0] $end
    $var wire 32 $" rf_o[28] [31:0] $end
    $var wire 32 %" rf_o[29] [31:0] $end
    $var wire 32 h! rf_o[2] [31:0] $end
    $var wire 32 &" rf_o[30] [31:0] $end
    $var wire 32 '" rf_o[31] [31:0] $end
    $var wire 32 i! rf_o[3] [31:0] $end
    $var wire 32 j! rf_o[4] [31:0] $end
    $var wire 32 k! rf_o[5] [31:0] $end
    $var wire 32 l! rf_o[6] [31:0] $end
    $var wire 32 m! rf_o[7] [31:0] $end
    $var wire 32 n! rf_o[8] [31:0] $end
    $var wire 32 o! rf_o[9] [31:0] $end
    $var wire 32 d! wdata [31:0] $end
    $var wire  1 c! wreg_en $end
    $var wire  5 e! wreg_index [4:0] $end
   $upscope $end
   $scope module exe_stage $end
    $var wire 32 L" Imm [31:0] $end
    $var wire 32 S" Inst [31:0] $end
    $var wire 32 P" PC [31:0] $end
    $var wire 14 K" alu_op [13:0] $end
    $var wire 32 > alu_result [31:0] $end
    $var wire  8 V" branch_op [7:0] $end
    $var wire  1 @# clk $end
    $var wire 219 2 ctrl_temp_bus [218:0] $end
    $var wire 32 > dnpc [31:0] $end
    $var wire 38 : ex_bypass [37:0] $end
    $var wire 219 2 ex_ctrl_bus [218:0] $end
    $var wire  1 < flush $end
    $var wire 200 & id_ctrl_bus [199:0] $end
    $var wire  1 O" inst_valid $end
    $var wire  1 = is_branch $end
    $var wire  1 J" is_sign $end
    $var wire  1 M# left_ready $end
    $var wire  1 1 left_valid $end
    $var wire  6 X" op_mem [5:0] $end
    $var wire 32 M" reg1 [31:0] $end
    $var wire 32 N" reg2 [31:0] $end
    $var wire  1 A# reset $end
    $var wire  1 9 right_fire $end
    $var wire  1 M# right_ready $end
    $var wire  1 9 right_valid $end
    $var wire  2 T" select_src1 [1:0] $end
    $var wire  2 U" select_src2 [1:0] $end
    $var wire 32 H" src1 [31:0] $end
    $var wire 32 I" src2 [31:0] $end
    $var wire  1 9 valid $end
    $var wire  1 Q" wreg_en $end
    $var wire  5 R" wreg_index [4:0] $end
    $var wire 32 W" write_data [31:0] $end
    $scope module alu $end
     $var wire 32 H" adder_a [31:0] $end
     $var wire 32 a" adder_b [31:0] $end
     $var wire  1 \" adder_cin $end
     $var wire  1 b" adder_cout $end
     $var wire 32 _" adder_result [31:0] $end
     $var wire 14 K" alu_op [13:0] $end
     $var wire 32 > alu_result [31:0] $end
     $var wire 32 H" alu_src1 [31:0] $end
     $var wire 32 I" alu_src2 [31:0] $end
     $var wire  1 Y" op_add $end
     $var wire  1 Z" op_imm $end
     $var wire  1 [" op_or $end
     $var wire  1 \" op_sub $end
     $var wire  1 ]" op_xor $end
     $var wire 32 ^" or_result [31:0] $end
     $var wire 32 `" xor_result [31:0] $end
    $upscope $end
   $upscope $end
   $scope module id_stage $end
    $var wire 32 g" Imm [31:0] $end
    $var wire 32 z" Imm12 [31:0] $end
    $var wire  1 !# Imm12_en $end
    $var wire 32 T# Imm14 [31:0] $end
    $var wire 32 |" Imm16 [31:0] $end
    $var wire  1 "# Imm16_en $end
    $var wire 32 {" Imm20 [31:0] $end
    $var wire  1 ~" Imm20_en $end
    $var wire 32 }" Imm26 [31:0] $end
    $var wire  1 ## Imm26_en $end
    $var wire 32 c" Inst [31:0] $end
    $var wire 32 d" PC [31:0] $end
    $var wire 14 e" alu_op [13:0] $end
    $var wire  8 f" branch_op [7:0] $end
    $var wire 200 & bus_temp [199:0] $end
    $var wire  1 @# clk $end
    $var wire 200 & ctrl_bus [199:0] $end
    $var wire 32 y" decoder_op_19_15 [31:0] $end
    $var wire  4 x" decoder_op_21_20 [3:0] $end
    $var wire 16 w" decoder_op_25_22 [15:0] $end
    $var wire 64 u" decoder_op_31_26 [63:0] $end
    $var wire  1 < flush $end
    $var wire 12 p" i12 [11:0] $end
    $var wire 14 q" i14 [13:0] $end
    $var wire 16 s" i16 [15:0] $end
    $var wire 20 r" i20 [19:0] $end
    $var wire 26 t" i26 [25:0] $end
    $var wire  1 *# inst_add $end
    $var wire  1 1# inst_addi $end
    $var wire  1 ## inst_bl $end
    $var wire  1 U# inst_break $end
    $var wire  1 "# inst_jirl $end
    $var wire  1 2# inst_ld_w $end
    $var wire  1 -# inst_lu12i $end
    $var wire  1 +# inst_or $end
    $var wire  1 .# inst_ori $end
    $var wire  1 ,# inst_pcaddu12i $end
    $var wire  1 (# inst_st_w $end
    $var wire  1 /# inst_sub $end
    $var wire  1 )# inst_valid $end
    $var wire  1 0# inst_xor $end
    $var wire  1 ## is_r1 $end
    $var wire  1 (# is_rd $end
    $var wire  1 Q# is_sign $end
    $var wire  1 &# is_sign_extend $end
    $var wire  1 M# left_ready $end
    $var wire  1 % left_valid $end
    $var wire  5 m" op_19_15 [4:0] $end
    $var wire  2 l" op_21_20 [1:0] $end
    $var wire  4 k" op_25_22 [3:0] $end
    $var wire  6 j" op_31_26 [5:0] $end
    $var wire  6 '# op_mem [5:0] $end
    $var wire  5 n" rd [4:0] $end
    $var wire 32 v reg_data1 [31:0] $end
    $var wire 32 w reg_data2 [31:0] $end
    $var wire  5 - reg_index1 [4:0] $end
    $var wire  5 . reg_index2 [4:0] $end
    $var wire  1 A# reset $end
    $var wire  1 1 right_fire $end
    $var wire  1 M# right_ready $end
    $var wire  1 1 right_valid $end
    $var wire  5 - rj [4:0] $end
    $var wire  5 o" rk [4:0] $end
    $var wire  2 $# select_src1 [1:0] $end
    $var wire  2 %# select_src2 [1:0] $end
    $var wire 32 v src1 [31:0] $end
    $var wire 32 w src2 [31:0] $end
    $var wire  1 1 valid $end
    $var wire  1 h" wreg_en $end
    $var wire  5 i" wreg_index [4:0] $end
    $scope module decoder_2_4 $end
     $var wire  2 l" in [1:0] $end
     $var wire  4 x" out [3:0] $end
    $upscope $end
    $scope module decoder_4_16 $end
     $var wire  4 k" in [3:0] $end
     $var wire 16 w" out [15:0] $end
    $upscope $end
    $scope module decoder_5_32_1 $end
     $var wire  5 m" in [4:0] $end
     $var wire 32 y" out [31:0] $end
    $upscope $end
    $scope module decoder_6_64_0 $end
     $var wire  6 j" in [5:0] $end
     $var wire 64 u" out [63:0] $end
    $upscope $end
   $upscope $end
   $scope module if_stage $end
    $var wire 32 B# Inst [31:0] $end
    $var wire 32 C# PC [31:0] $end
    $var wire 64 # bus_temp [63:0] $end
    $var wire  1 @# clk $end
    $var wire 64 # data_bus [63:0] $end
    $var wire 32 > dnpc [31:0] $end
    $var wire  1 < flush $end
    $var wire  1 E# inst_ready $end
    $var wire  1 = is_branch $end
    $var wire  1 D# pc_valid $end
    $var wire  1 A# reset $end
    $var wire  1 % right_fire $end
    $var wire  1 M# right_ready $end
    $var wire  1 % right_valid $end
    $var wire 32 3# temp [31:0] $end
    $var wire  1 % valid $end
   $upscope $end
   $scope module mem_stage $end
    $var wire 32 6# Imm [31:0] $end
    $var wire 32 8# Inst [31:0] $end
    $var wire 32 7# PC [31:0] $end
    $var wire 32 G# addr [31:0] $end
    $var wire 14 4# alu_op [13:0] $end
    $var wire 32 =# alu_result [31:0] $end
    $var wire 103 ? bus_temp [102:0] $end
    $var wire  1 @# clk $end
    $var wire  1 J# en $end
    $var wire  1 5# inst_valid $end
    $var wire  1 M# left_ready $end
    $var wire  1 9 left_valid $end
    $var wire 38 D mem_bypass [37:0] $end
    $var wire 219 2 mem_ctrl_bus [218:0] $end
    $var wire 32 L# mem_result [31:0] $end
    $var wire  6 ># op_mem [5:0] $end
    $var wire 32 F# rdata [31:0] $end
    $var wire  1 A# reset $end
    $var wire  1 C right_fire $end
    $var wire  1 M# right_ready $end
    $var wire  1 C right_valid $end
    $var wire 32 ;# src1 [31:0] $end
    $var wire 32 <# src2 [31:0] $end
    $var wire  1 C valid $end
    $var wire 103 ? wb_ctrl_bus [102:0] $end
    $var wire 32 H# wdata [31:0] $end
    $var wire  1 K# we $end
    $var wire  4 I# wmask [3:0] $end
    $var wire  1 :# wreg_en $end
    $var wire  5 9# wreg_index [4:0] $end
   $upscope $end
   $scope module wb_syage $end
    $var wire 103 F bus_temp [102:0] $end
    $var wire  1 @# clk $end
    $var wire  1 M# left_ready $end
    $var wire  1 C left_valid $end
    $var wire 103 ? mem_ctrl_bus [102:0] $end
    $var wire  1 A# reset $end
    $var wire  1 ?# right_fire $end
    $var wire  1 M# right_ready $end
    $var wire  1 ?# right_valid $end
    $var wire  1 ?# valid $end
    $var wire 38 J wb_bypass [37:0] $end
    $var wire 103 F wb_ctrl_bus [102:0] $end
   $upscope $end
  $upscope $end
 $upscope $end
$enddefinitions $end


#0
b0000000000000000000000000000000000000000000000000000000000000000 #
0%
b00000000000000000000000000000000000000000000000000000000000000000000000000000000000000000000000000000000000000000000000000000000000000000000000000000000000000000000000000000000000000000000000000000000 &
b00000 -
b00000 .
b00000000000000000000000000000000 /
b00000000000000000000000000000000 0
01
b000000000000000000000000000000000000000000000000000000000000000000000000000000000000000000000000000000000000000000000000000000000000000000000000000000000000000000000000000000000000000000000000000000000000000000000000000 2
09
b00000000000000000000000000000000000000 :
0<
0=
b00000000000000000000000000000000 >
b0000000000000000000000000000000000000000000000000000000000000000000000000000000000000000000000000000000 ?
0C
b00000000000000000000000000000000000000 D
b0000000000000000000000000000000000000000000000000000000000000000000000000000000000000000000000000000000 F
b00000000000000000000000000000000000000 J
b0000000000000000000000000000000000000000000000000000000000000000000000000000000000000000000000000000000 L
0P
b00000 Q
0R
b00000000000000000000000000000000 S
b00000000000000000000000000000000 T
b00000000000000000000000000000000 U
b00000000000000000000000000000000 V
b00000000000000000000000000000000 W
b00000000000000000000000000000000 X
b00000000000000000000000000000000 Y
b00000000000000000000000000000000 Z
b00000000000000000000000000000000 [
b00000000000000000000000000000000 \
b00000000000000000000000000000000 ]
b00000000000000000000000000000000 ^
b00000000000000000000000000000000 _
b00000000000000000000000000000000 `
b00000000000000000000000000000000 a
b00000000000000000000000000000000 b
b00000000000000000000000000000000 c
b00000000000000000000000000000000 d
b00000000000000000000000000000000 e
b00000000000000000000000000000000 f
b00000000000000000000000000000000 g
b00000000000000000000000000000000 h
b00000000000000000000000000000000 i
b00000000000000000000000000000000 j
b00000000000000000000000000000000 k
b00000000000000000000000000000000 l
b00000000000000000000000000000000 m
b00000000000000000000000000000000 n
b00000000000000000000000000000000 o
b00000000000000000000000000000000 p
b00000000000000000000000000000000 q
b00000000000000000000000000000000 r
b00000000000000000000000000000000 s
b00000000000000000000000000000000 t
b00000000000000000000000000000000 u
b00000000000000000000000000000000 v
b00000000000000000000000000000000 w
0x
0y
0z
0{
0|
0}
b0000000000000000000000000000000000000000000000000000000000000000 ~
b0000000000000000000000000000000000000000000000000000000000000000 "!
b0000000000000000000000000000000000000000000000000000000000000000 $!
b0000000000000000000000000000000000000000000000000000000000000000 &!
b0000000000000000000000000000000000000000000000000000000000000000 (!
b0000000000000000000000000000000000000000000000000000000000000000 *!
b0000000000000000000000000000000000000000000000000000000000000000 ,!
b0000000000000000000000000000000000000000000000000000000000000000 .!
b0000000000000000000000000000000000000000000000000000000000000000 0!
b0000000000000000000000000000000000000000000000000000000000000000 2!
b0000000000000000000000000000000000000000000000000000000000000000 4!
b0000000000000000000000000000000000000000000000000000000000000000 6!
b0000000000000000000000000000000000000000000000000000000000000000 8!
b0000000000000000000000000000000000000000000000000000000000000000 :!
b0000000000000000000000000000000000000000000000000000000000000000 <!
b0000000000000000000000000000000000000000000000000000000000000000 >!
b0000000000000000000000000000000000000000000000000000000000000000 @!
b0000000000000000000000000000000000000000000000000000000000000000 B!
b0000000000000000000000000000000000000000000000000000000000000000 D!
b0000000000000000000000000000000000000000000000000000000000000000 F!
b0000000000000000000000000000000000000000000000000000000000000000 H!
b0000000000000000000000000000000000000000000000000000000000000000 J!
b0000000000000000000000000000000000000000000000000000000000000000 L!
b0000000000000000000000000000000000000000000000000000000000000000 N!
b0000000000000000000000000000000000000000000000000000000000000000 P!
b0000000000000000000000000000000000000000000000000000000000000000 R!
b0000000000000000000000000000000000000000000000000000000000000000 T!
b0000000000000000000000000000000000000000000000000000000000000000 V!
b0000000000000000000000000000000000000000000000000000000000000000 X!
b0000000000000000000000000000000000000000000000000000000000000000 Z!
b0000000000000000000000000000000000000000000000000000000000000000 \!
b0000000000000000000000000000000000000000000000000000000000000000 ^!
b00000000 `!
b0000000000000000000000000000000000000000000000000000000000000000 a!
0c!
b00000000000000000000000000000000 d!
b00000 e!
b00000000000000000000000000000000 f!
b00000000000000000000000000000000 g!
b00000000000000000000000000000000 h!
b00000000000000000000000000000000 i!
b00000000000000000000000000000000 j!
b00000000000000000000000000000000 k!
b00000000000000000000000000000000 l!
b00000000000000000000000000000000 m!
b00000000000000000000000000000000 n!
b00000000000000000000000000000000 o!
b00000000000000000000000000000000 p!
b00000000000000000000000000000000 q!
b00000000000000000000000000000000 r!
b00000000000000000000000000000000 s!
b00000000000000000000000000000000 t!
b00000000000000000000000000000000 u!
b00000000000000000000000000000000 v!
b00000000000000000000000000000000 w!
b00000000000000000000000000000000 x!
b00000000000000000000000000000000 y!
b00000000000000000000000000000000 z!
b00000000000000000000000000000000 {!
b00000000000000000000000000000000 |!
b00000000000000000000000000000000 }!
b00000000000000000000000000000000 ~!
b00000000000000000000000000000000 !"
b00000000000000000000000000000000 ""
b00000000000000000000000000000000 #"
b00000000000000000000000000000000 $"
b00000000000000000000000000000000 %"
b00000000000000000000000000000000 &"
b00000000000000000000000000000000 '"
b00000000000000000000000000000000 ("
b00000000000000000000000000000000 )"
b00000000000000000000000000000000 *"
b00000000000000000000000000000000 +"
b00000000000000000000000000000000 ,"
b00000000000000000000000000000000 -"
b00000000000000000000000000000000 ."
b00000000000000000000000000000000 /"
b00000000000000000000000000000000 0"
b00000000000000000000000000000000 1"
b00000000000000000000000000000000 2"
b00000000000000000000000000000000 3"
b00000000000000000000000000000000 4"
b00000000000000000000000000000000 5"
b00000000000000000000000000000000 6"
b00000000000000000000000000000000 7"
b00000000000000000000000000000000 8"
b00000000000000000000000000000000 9"
b00000000000000000000000000000000 :"
b00000000000000000000000000000000 ;"
b00000000000000000000000000000000 <"
b00000000000000000000000000000000 ="
b00000000000000000000000000000000 >"
b00000000000000000000000000000000 ?"
b00000000000000000000000000000000 @"
b00000000000000000000000000000000 A"
b00000000000000000000000000000000 B"
b00000000000000000000000000000000 C"
b00000000000000000000000000000000 D"
b00000000000000000000000000000000 E"
b00000000000000000000000000000000 F"
b00000000000000000000000000000000 G"
b00000000000000000000000000000000 H"
b00000000000000000000000000000000 I"
0J"
b00000000000000 K"
b00000000000000000000000000000000 L"
b00000000000000000000000000000000 M"
b00000000000000000000000000000000 N"
0O"
b00000000000000000000000000000000 P"
0Q"
b00000 R"
b00000000000000000000000000000000 S"
b00 T"
b00 U"
b00000000 V"
b00000000000000000000000000000000 W"
b000000 X"
0Y"
0Z"
0["
0\"
0]"
b00000000000000000000000000000000 ^"
b00000000000000000000000000000000 _"
b00000000000000000000000000000000 `"
b00000000000000000000000000000000 a"
0b"
b00000000000000000000000000000000 c"
b00000000000000000000000000000000 d"
b00000000000000 e"
b00000000 f"
b00000000000000000000000000000000 g"
0h"
b00000 i"
b000000 j"
b0000 k"
b00 l"
b00000 m"
b00000 n"
b00000 o"
b000000000000 p"
b00000000000000 q"
b00000000000000000000 r"
b0000000000000000 s"
b00000000000000000000000000 t"
b0000000000000000000000000000000000000000000000000000000000000001 u"
b0000000000000001 w"
b0001 x"
b00000000000000000000000000000001 y"
b00000000000000000000000000000000 z"
b00000000000000000000000000000000 {"
b00000000000000000000000000000000 |"
b00000000000000000000000000000000 }"
0~"
0!#
0"#
0##
b00 $#
b00 %#
0&#
b000000 '#
0(#
0)#
0*#
0+#
0,#
0-#
0.#
0/#
00#
01#
02#
b00000000000000000000000000000000 3#
b00000000000000 4#
05#
b00000000000000000000000000000000 6#
b00000000000000000000000000000000 7#
b00000000000000000000000000000000 8#
b00000 9#
0:#
b00000000000000000000000000000000 ;#
b00000000000000000000000000000000 <#
b00000000000000000000000000000000 =#
b000000 >#
0?#
1@#
1A#
b00000000000000000000000000000000 B#
b00000000000000000000000000000000 C#
1D#
0E#
b00000000000000000000000000000000 F#
b00000000000000000000000000000000 G#
b00000000000000000000000000000000 H#
b1111 I#
0J#
0K#
b00000000000000000000000000000000 L#
1M#
b00000000 N#
b0000000000000000000000000000000000000000000000000000000000000000 O#
0Q#
b00000 R#
b00000000000000000000000000000000 S#
b00000000000000000000000000000000 T#
0U#
#1
0@#
#2
b00011100000000000000000000000000 3#
1@#
b00011100000000000000000000000000 C#
#3
0@#
#4
1@#
#5
0@#
0A#
b00000000000100000000000000010111 B#
1E#
#6
b0001110000000000000000000000000000000000000100000000000000010111 #
1%
b00000000000100000000000000010111 c"
b00011100000000000000000000000000 d"
b00000000000001 e"
1h"
b10111 i"
b01 l"
b10111 n"
b010000000000 p"
b00010000000000 q"
b00001000000000000000 r"
b0000010000000000 s"
b00000101110000010000000000 t"
b0010 x"
b00000000000000000000010000000000 z"
b00001000000000000000000000000000 {"
b00000000010111000001000000000000 }"
1)#
1*#
b00011100000000000000000000000100 3#
1@#
b00011100000000000000000000000100 C#
#7
0@#
b00010100001110000000000100100011 B#
#8
b0001110000000000000000000000010000010100001110000000000100100011 #
b00000000000000000000000000000000110001110000000000000000000000000000000000000100000000000000010111101111000000000000000000000000000000000000000000000000000000000000000000000000000000000000000000000000 &
b01001 -
11
b00000000000000000000000000000000101111 :
b00000000000001 K"
1O"
b00011100000000000000000000000000 P"
1Q"
b10111 R"
b00000000000100000000000000010111 S"
1Y"
b00010100001110000000000100100011 c"
b00011100000000000000000000000100 d"
b00000000000010 e"
b00011100000000001001000000000000 g"
b00011 i"
b000101 j"
b11 l"
b10000 m"
b00011 n"
b111000000000 p"
b00111000000000 q"
b00011100000000001001 r"
b0000111000000000 s"
b01001000110000111000000000 t"
b0000000000000000000000000000000000000000000000000000000000100000 u"
b1000 x"
b00000000000000010000000000000000 y"
b00000000000000000000111000000000 z"
b00011100000000001001000000000000 {"
b00000100100011000011100000000000 }"
1~"
b01 $#
0*#
1-#
b00011100000000000000000000001000 3#
1@#
b00011100000000000000000000001000 C#
#9
0@#
b00000011100000000000000001100011 B#
#10
b0001110000000000000000000000100000000011100000000000000001100011 #
b00000000000000010000000000000001010001110000000000000000000000010000010100001110000000000100100011000111000000000000000000000000000000000000000000000000000000000000000000011100000000001001000000000000 &
b00011 -
b000000000000000000011000000000000000000000000000000000001110000000000000000000000000000000000000100000000000000010111101111000000000000000000000000000000000000000000000000000000000000000000000000000000000000000000000000 2
19
b00011100000000001001000000000000000111 :
b00011100000000001001000000000000 >
b00000000000000000000000000000000101111 D
b00011100000000001001000000000000 v
1x
b00011100000000001001000000000000 H"
b00000000000010 K"
b00011100000000001001000000000000 L"
b00011100000000000000000000000100 P"
b00011 R"
b00010100001110000000000100100011 S"
b01 T"
b00011100000000001001000000000000 W"
0Y"
1Z"
b00011100000000001001000000000000 ^"
b00011100000000001001000000000000 _"
b00011100000000001001000000000000 `"
b00000011100000000000000001100011 c"
b00011100000000000000000000001000 d"
b00000000000100 e"
b00000000000000000000000000000000 g"
b000000 j"
b1110 k"
b00 l"
b00000 m"
b000000000000 p"
b10000000000000 q"
b11000000000000000011 r"
b1110000000000000 s"
b00011000111110000000000000 t"
b0000000000000000000000000000000000000000000000000000000000000001 u"
b0100000000000000 w"
b0001 x"
b00000000000000000000000000000001 y"
b00000000000000000000000000000000 z"
b11000000000000000011000000000000 {"
b00000001100011111000000000000000 }"
0~"
1!#
b00 $#
b01 %#
0-#
1.#
b00011100000000000000000000001100 3#
b00000000000001 4#
15#
b00011100000000000000000000000000 7#
b00000000000100000000000000010111 8#
b10111 9#
1:#
1@#
b00011100000000000000000000001100 C#
#11
0@#
b00010100001110000000000000011000 B#
