testbench/waveform.vcd
$version Generated by VerilatedVcd $end
$date Sun Apr 23 22:49:42 2023 $end
$timescale 1ps $end

 $scope module TOP $end
  $var wire 32 O! PC [31:0] $end
  $var wire 32 S! addr [31:0] $end
  $var wire  1 L! clk $end
  $var wire  1 V! en $end
  $var wire 32 N! inst [31:0] $end
  $var wire  1 Q! inst_ready $end
  $var wire  1 P! pc_valid $end
  $var wire 32 R! rdata [31:0] $end
  $var wire  1 M! reset $end
  $var wire 32 T! wdata [31:0] $end
  $var wire  4 U! wmask [3:0] $end
  $scope module Top $end
   $var wire 32 O! PC [31:0] $end
   $var wire 32 S! addr [31:0] $end
   $var wire  1 L! clk $end
   $var wire 32 I difftest_Inst [31:0] $end
   $var wire 32 J difftest_PC [31:0] $end
   $var wire 103 B difftest_bus [102:0] $end
   $var wire  1 F difftest_inst_valid $end
   $var wire 32 K difftest_result [31:0] $end
   $var wire  1 H difftest_wreg_en $end
   $var wire  5 G difftest_wreg_index [4:0] $end
   $var wire  1 V! en $end
   $var wire 213 1 ex_bus [212:0] $end
   $var wire  1 W! ex_right_ready $end
   $var wire  1 8 ex_right_valid $end
   $var wire 186 & id_bus [185:0] $end
   $var wire  1 W! id_right_ready $end
   $var wire  1 0 id_right_valid $end
   $var wire 64 # if_bus [63:0] $end
   $var wire  1 W! if_right_ready $end
   $var wire  1 % if_right_valid $end
   $var wire 32 N! inst [31:0] $end
   $var wire  1 Q! inst_ready $end
   $var wire 103 9 mem_bus [102:0] $end
   $var wire  1 W! mem_right_ready $end
   $var wire  1 = mem_right_valid $end
   $var wire  1 P! pc_valid $end
   $var wire 32 R! rdata [31:0] $end
   $var wire 32 . reg_data1 [31:0] $end
   $var wire 32 / reg_data2 [31:0] $end
   $var wire  5 , reg_index1 [4:0] $end
   $var wire  5 - reg_index2 [4:0] $end
   $var wire  1 M! reset $end
   $var wire 103 > wb_bus [102:0] $end
   $var wire 32 T! wdata [31:0] $end
   $var wire  4 U! wmask [3:0] $end
   $scope module DifftestInstrCommit $end
    $var wire  5 Z! TLBFILL_index [4:0] $end
    $var wire  1 L! clock $end
    $var wire  8 X! coreid [7:0] $end
    $var wire 32 ]! csr_data [31:0] $end
    $var wire  1 Y! csr_rstat $end
    $var wire  8 X! index [7:0] $end
    $var wire 32 I instr [31:0] $end
    $var wire  1 Y! is_CNTinst $end
    $var wire  1 Y! is_TLBFILL $end
    $var wire 64 L pc [63:0] $end
    $var wire  1 Y! skip $end
    $var wire 64 [! timer_64_value [63:0] $end
    $var wire  1 F valid $end
    $var wire 64 O wdata [63:0] $end
    $var wire  8 N wdest [7:0] $end
    $var wire  1 H wen $end
   $upscope $end
   $scope module Regfile $end
    $var wire  1 L! clk $end
    $var wire 32 . data1 [31:0] $end
    $var wire 32 / data2 [31:0] $end
    $var wire  5 , reg_index1 [4:0] $end
    $var wire  5 - reg_index2 [4:0] $end
    $var wire  1 M! reset $end
    $var wire 32 T rf[0] [31:0] $end
    $var wire 32 ^ rf[10] [31:0] $end
    $var wire 32 _ rf[11] [31:0] $end
    $var wire 32 ` rf[12] [31:0] $end
    $var wire 32 a rf[13] [31:0] $end
    $var wire 32 b rf[14] [31:0] $end
    $var wire 32 c rf[15] [31:0] $end
    $var wire 32 d rf[16] [31:0] $end
    $var wire 32 e rf[17] [31:0] $end
    $var wire 32 f rf[18] [31:0] $end
    $var wire 32 g rf[19] [31:0] $end
    $var wire 32 U rf[1] [31:0] $end
    $var wire 32 h rf[20] [31:0] $end
    $var wire 32 i rf[21] [31:0] $end
    $var wire 32 j rf[22] [31:0] $end
    $var wire 32 k rf[23] [31:0] $end
    $var wire 32 l rf[24] [31:0] $end
    $var wire 32 m rf[25] [31:0] $end
    $var wire 32 n rf[26] [31:0] $end
    $var wire 32 o rf[27] [31:0] $end
    $var wire 32 p rf[28] [31:0] $end
    $var wire 32 q rf[29] [31:0] $end
    $var wire 32 V rf[2] [31:0] $end
    $var wire 32 r rf[30] [31:0] $end
    $var wire 32 s rf[31] [31:0] $end
    $var wire 32 W rf[3] [31:0] $end
    $var wire 32 X rf[4] [31:0] $end
    $var wire 32 Y rf[5] [31:0] $end
    $var wire 32 Z rf[6] [31:0] $end
    $var wire 32 [ rf[7] [31:0] $end
    $var wire 32 \ rf[8] [31:0] $end
    $var wire 32 ] rf[9] [31:0] $end
    $var wire 32 R wdata [31:0] $end
    $var wire  1 Q wreg_en $end
    $var wire  5 S wreg_index [4:0] $end
   $upscope $end
   $scope module exe_stage $end
    $var wire 32 x Imm [31:0] $end
    $var wire 32 !! Inst [31:0] $end
    $var wire 32 | PC [31:0] $end
    $var wire 14 w alu_op [13:0] $end
    $var wire 32 $! alu_result [31:0] $end
    $var wire  1 L! clk $end
    $var wire 213 1 ctrl_temp_bus [212:0] $end
    $var wire 213 1 ex_ctrl_bus [212:0] $end
    $var wire 186 & id_ctrl_bus [185:0] $end
    $var wire  1 { inst_valid $end
    $var wire  1 v is_sign $end
    $var wire  1 W! left_ready $end
    $var wire  1 0 left_valid $end
    $var wire 32 y reg1 [31:0] $end
    $var wire 32 z reg2 [31:0] $end
    $var wire  1 M! reset $end
    $var wire  1 8 right_fire $end
    $var wire  1 W! right_ready $end
    $var wire  1 8 right_valid $end
    $var wire  2 "! select_src1 [1:0] $end
    $var wire  2 #! select_src2 [1:0] $end
    $var wire 32 t src1 [31:0] $end
    $var wire 32 u src2 [31:0] $end
    $var wire  1 8 valid $end
    $var wire  1 } wreg_en $end
    $var wire  5 ~ wreg_index [4:0] $end
    $scope module alu $end
     $var wire 32 ^! add_result [31:0] $end
     $var wire 32 _! adder_a [31:0] $end
     $var wire 32 `! adder_b [31:0] $end
     $var wire  1 a! adder_cin $end
     $var wire  1 c! adder_cout $end
     $var wire 32 b! adder_result [31:0] $end
     $var wire 14 w alu_op [13:0] $end
     $var wire 32 $! alu_result [31:0] $end
     $var wire 32 t alu_src1 [31:0] $end
     $var wire 32 u alu_src2 [31:0] $end
     $var wire  1 %! op_add $end
    $upscope $end
   $upscope $end
   $scope module id_stage $end
    $var wire 32 )! Imm [31:0] $end
    $var wire 32 d! Imm12 [31:0] $end
    $var wire 32 e! Imm14 [31:0] $end
    $var wire 32 f! Imm16 [31:0] $end
    $var wire 32 9! Imm20 [31:0] $end
    $var wire  1 >! Imm20_en $end
    $var wire 32 g! Imm26 [31:0] $end
    $var wire 32 &! Inst [31:0] $end
    $var wire 32 '! PC [31:0] $end
    $var wire 14 (! alu_op [13:0] $end
    $var wire 186 & bus_temp [185:0] $end
    $var wire  1 L! clk $end
    $var wire 186 & ctrl_bus [185:0] $end
    $var wire 32 8! decoder_op_19_15 [31:0] $end
    $var wire  4 7! decoder_op_21_20 [3:0] $end
    $var wire 16 6! decoder_op_25_22 [15:0] $end
    $var wire 32 5! decoder_op_31_26 [31:0] $end
    $var wire 12 0! i12 [11:0] $end
    $var wire 14 1! i14 [13:0] $end
    $var wire 16 3! i16 [15:0] $end
    $var wire 20 2! i20 [19:0] $end
    $var wire 26 4! i26 [25:0] $end
    $var wire  1 =! inst_add $end
    $var wire  1 h! inst_or $end
    $var wire  1 >! inst_pcaddu12i $end
    $var wire  1 <! inst_valid $end
    $var wire  1 Y! is_sign $end
    $var wire  1 Y! is_sign_extend $end
    $var wire  1 W! left_ready $end
    $var wire  1 % left_valid $end
    $var wire  5 /! op_19_15 [4:0] $end
    $var wire  2 .! op_21_20 [1:0] $end
    $var wire  4 -! op_25_22 [3:0] $end
    $var wire  6 ,! op_31_26 [5:0] $end
    $var wire  5 +! rd [4:0] $end
    $var wire 32 . reg_data1 [31:0] $end
    $var wire 32 / reg_data2 [31:0] $end
    $var wire  5 , reg_index1 [4:0] $end
    $var wire  5 - reg_index2 [4:0] $end
    $var wire  1 M! reset $end
    $var wire  1 0 right_fire $end
    $var wire  1 W! right_ready $end
    $var wire  1 0 right_valid $end
    $var wire  5 , rj [4:0] $end
    $var wire  5 - rk [4:0] $end
    $var wire  2 :! select_src1 [1:0] $end
    $var wire  2 ;! select_src2 [1:0] $end
    $var wire 32 . src1 [31:0] $end
    $var wire 32 / src2 [31:0] $end
    $var wire  1 0 valid $end
    $var wire  1 *! wreg_en $end
    $var wire  5 +! wreg_index [4:0] $end
    $scope module decoder_2_4 $end
     $var wire  2 .! in [1:0] $end
     $var wire  4 7! out [3:0] $end
    $upscope $end
    $scope module decoder_4_16 $end
     $var wire  4 -! in [3:0] $end
     $var wire 16 6! out [15:0] $end
    $upscope $end
    $scope module decoder_5_32_0 $end
     $var wire  5 ?! in [4:0] $end
     $var wire 32 5! out [31:0] $end
    $upscope $end
    $scope module decoder_5_32_1 $end
     $var wire  5 /! in [4:0] $end
     $var wire 32 8! out [31:0] $end
    $upscope $end
   $upscope $end
   $scope module if_stage $end
    $var wire 32 N! Inst [31:0] $end
    $var wire 32 O! PC [31:0] $end
    $var wire 64 # bus_temp [63:0] $end
    $var wire  1 L! clk $end
    $var wire 64 # data_bus [63:0] $end
    $var wire  1 Q! inst_ready $end
    $var wire  1 P! pc_valid $end
    $var wire  1 M! reset $end
    $var wire  1 % right_fire $end
    $var wire  1 W! right_ready $end
    $var wire  1 % right_valid $end
    $var wire 32 @! temp [31:0] $end
    $var wire  1 % valid $end
   $upscope $end
   $scope module mem_stage $end
    $var wire 32 D! Imm [31:0] $end
    $var wire 32 F! Inst [31:0] $end
    $var wire 32 E! PC [31:0] $end
    $var wire 32 S! addr [31:0] $end
    $var wire 14 B! alu_op [13:0] $end
    $var wire 32 A! alu_result [31:0] $end
    $var wire 103 9 bus_temp [102:0] $end
    $var wire  1 L! clk $end
    $var wire  1 V! en $end
    $var wire  1 C! inst_valid $end
    $var wire  1 W! left_ready $end
    $var wire  1 8 left_valid $end
    $var wire 213 1 mem_ctrl_bus [212:0] $end
    $var wire 32 A! mem_result [31:0] $end
    $var wire 32 R! rdata [31:0] $end
    $var wire  1 M! reset $end
    $var wire  1 = right_fire $end
    $var wire  1 W! right_ready $end
    $var wire  1 = right_valid $end
    $var wire 32 I! src1 [31:0] $end
    $var wire 32 J! src2 [31:0] $end
    $var wire  1 = valid $end
    $var wire 103 9 wb_ctrl_bus [102:0] $end
    $var wire 32 T! wdata [31:0] $end
    $var wire  4 U! wmask [3:0] $end
    $var wire  1 H! wreg_en $end
    $var wire  5 G! wreg_index [4:0] $end
   $upscope $end
   $scope module wb_syage $end
    $var wire 103 > bus_temp [102:0] $end
    $var wire  1 L! clk $end
    $var wire  1 W! left_ready $end
    $var wire  1 = left_valid $end
    $var wire 103 9 mem_ctrl_bus [102:0] $end
    $var wire  1 M! reset $end
    $var wire  1 K! right_fire $end
    $var wire  1 W! right_ready $end
    $var wire  1 K! right_valid $end
    $var wire  1 K! valid $end
    $var wire 103 > wb_ctrl_bus [102:0] $end
   $upscope $end
  $upscope $end
 $upscope $end
$enddefinitions $end


#0
b0000000000000000000000000000000000000000000000000000000000000000 #
0%
b000000000000000000000000000000000000000000000000000000000000000000000000000000000000000000000000000000000000000000000000000000000000000000000000000000000000000000000000000000000000000000 &
b00000 ,
b00000 -
b00000000000000000000000000000000 .
b00000000000000000000000000000000 /
00
b000000000000000000000000000000000000000000000000000000000000000000000000000000000000000000000000000000000000000000000000000000000000000000000000000000000000000000000000000000000000000000000000000000000000000000000 1
08
b0000000000000000000000000000000000000000000000000000000000000000000000000000000000000000000000000000000 9
0=
b0000000000000000000000000000000000000000000000000000000000000000000000000000000000000000000000000000000 >
b0000000000000000000000000000000000000000000000000000000000000000000000000000000000000000000000000000000 B
0F
b00000 G
0H
b00000000000000000000000000000000 I
b00000000000000000000000000000000 J
b00000000000000000000000000000000 K
b0000000000000000000000000000000000000000000000000000000000000000 L
b00000000 N
b0000000000000000000000000000000000000000000000000000000000000000 O
0Q
b00000000000000000000000000000000 R
b00000 S
b00000000000000000000000000000000 T
b00000000000000000000000000000000 U
b00000000000000000000000000000000 V
b00000000000000000000000000000000 W
b00000000000000000000000000000000 X
b00000000000000000000000000000000 Y
b00000000000000000000000000000000 Z
b00000000000000000000000000000000 [
b00000000000000000000000000000000 \
b00000000000000000000000000000000 ]
b00000000000000000000000000000000 ^
b00000000000000000000000000000000 _
b00000000000000000000000000000000 `
b00000000000000000000000000000000 a
b00000000000000000000000000000000 b
b00000000000000000000000000000000 c
b00000000000000000000000000000000 d
b00000000000000000000000000000000 e
b00000000000000000000000000000000 f
b00000000000000000000000000000000 g
b00000000000000000000000000000000 h
b00000000000000000000000000000000 i
b00000000000000000000000000000000 j
b00000000000000000000000000000000 k
b00000000000000000000000000000000 l
b00000000000000000000000000000000 m
b00000000000000000000000000000000 n
b00000000000000000000000000000000 o
b00000000000000000000000000000000 p
b00000000000000000000000000000000 q
b00000000000000000000000000000000 r
b00000000000000000000000000000000 s
b00000000000000000000000000000000 t
b00000000000000000000000000000000 u
0v
b00000000000000 w
b00000000000000000000000000000000 x
b00000000000000000000000000000000 y
b00000000000000000000000000000000 z
0{
b00000000000000000000000000000000 |
0}
b00000 ~
b00000000000000000000000000000000 !!
b00 "!
b00 #!
b00000000000000000000000000000000 $!
0%!
b00000000000000000000000000000000 &!
b00000000000000000000000000000000 '!
b00000000000000 (!
b00000000000000000000000000000000 )!
0*!
b00000 +!
b000000 ,!
b0000 -!
b00 .!
b00000 /!
b000000000000 0!
b00000000000000 1!
b00000000000000000000 2!
b0000000000000000 3!
b00000000000000000000000000 4!
b00000000000000000000000000000001 5!
b0000000000000001 6!
b0001 7!
b00000000000000000000000000000001 8!
b00000000000000000000000000000000 9!
b11 :!
b11 ;!
0<!
0=!
0>!
b00000 ?!
b00000000000000000000000000000000 @!
b00000000000000000000000000000000 A!
b00000000000000 B!
0C!
b00000000000000000000000000000000 D!
b00000000000000000000000000000000 E!
b00000000000000000000000000000000 F!
b00000 G!
0H!
b00000000000000000000000000000000 I!
b00000000000000000000000000000000 J!
0K!
1L!
1M!
b00000000000000000000000000000000 N!
b00000000000000000000000000000000 O!
1P!
0Q!
b00000000000000000000000000000000 R!
b00000000000000000000000000000000 S!
b00000000000000000000000000000000 T!
b0000 U!
0V!
1W!
b00000000 X!
0Y!
b00000 Z!
b0000000000000000000000000000000000000000000000000000000000000000 [!
b00000000000000000000000000000000 ]!
b00000000000000000000000000000000 ^!
b00000000000000000000000000000000 _!
b00000000000000000000000000000000 `!
0a!
b00000000000000000000000000000000 b!
0c!
b00000000000000000000000000000000 d!
b00000000000000000000000000000000 e!
b00000000000000000000000000000000 f!
b00000000000000000000000000000000 g!
0h!
#1
0L!
#2
b00011100000000000000000000000000 @!
1L!
b00011100000000000000000000000000 O!
#3
0L!
#4
1L!
#5
0L!
0M!
b00000000000101010000000010001001 N!
1Q!
#6
b0001110000000000000000000000000000000000000101010000000010001001 #
1%
b00100 ,
b00000000000101010000000010001001 &!
b00011100000000000000000000000000 '!
b01001 +!
b01 .!
b01010 /!
b010101000000 0!
b00010101000000 1!
b00001010100000000100 2!
b0000010101000000 3!
b00100010010000010101000000 4!
b0010 7!
b00000000000000000000010000000000 8!
b00001010100000000100000000000000 9!
1L!
#7
0L!
#8
b111100000000000000000001110000000000000000000000000000000000000101010000000010001001010010000000000000000000000000000000000000000000000000000000000000000000000000000000000000000000000000 &
10
b00011100000000000000000000000000 t
b00011100000000000000000000000000 u
b00011100000000000000000000000000 |
b01001 ~
b00000000000101010000000010001001 !!
b11 "!
b11 #!
b00011100000000000000000000000100 @!
1L!
b00011100000000000000000000000100 O!
#9
0L!
b00011100000000000000000100000100 N!
#10
b0001110000000000000000000000010000011100000000000000000100000100 #
b01000 ,
b000000000000000000000000000000000000000000000000001110000000000000000000000000000000000000101010000000010001001010010000111000000000000000000000000000001110000000000000000000000000000000000000000000000000000000000 1
18
b00011100000000000000000100000100 &!
b00011100000000000000000000000100 '!
b00000000000001 (!
b00000000000000001000000000000000 )!
b00100 +!
b000111 ,!
b00 .!
b00000 /!
b000000000000 0!
b00000000000000 1!
b00000000000000001000 2!
b0000000000000000 3!
b01000001000000000000000000 4!
b00000000000000000000000010000000 5!
b0001 7!
b00000000000000000000000000000001 8!
b00000000000000001000000000000000 9!
1<!
1>!
b00111 ?!
b00011100000000000000000000001000 @!
b00011100000000000000000000000000 E!
b00000000000101010000000010001001 F!
b01001 G!
b00011100000000000000000000000000 I!
b00011100000000000000000000000000 J!
1L!
b00011100000000000000000000001000 O!
#11
0L!
b00101000101100101011000010000100 N!
#12
b0001110000000000000000000000100000101000101100101011000010000100 #
b111100000000000000110001110000000000000000000000010000011100000000000000000100000100001000000000000000000000000000000000000000000000000000000000000000000000000000000000001000000000000000 &
b00100 ,
b01100 -
b0010010000000000001010100000000100010010001110000000000000000000000000000000000000000000000000000000000 9
1=
b00011100000000000000000000000100 t
b00011100000000000000000000000100 u
b00000000000001 w
b00000000000000001000000000000000 x
1{
b00011100000000000000000000000100 |
b00100 ~
b00011100000000000000000100000100 !!
1%!
b00101000101100101011000010000100 &!
b00011100000000000000000000001000 '!
b00000000000000 (!
b00000000000000000000000000000000 )!
b001010 ,!
b0010 -!
b11 .!
b00101 /!
b110010101100 0!
b10110010101100 1!
b01011001010110000100 2!
b0010110010101100 3!
b00100001000010110010101100 4!
b00000000000000000000010000000000 5!
b0000000000000100 6!
b1000 7!
b00000000000000000000000000100000 8!
b01011001010110000100000000000000 9!
0<!
0>!
b01010 ?!
b00011100000000000000000000001100 @!
1L!
b00011100000000000000000000001100 O!
#13
0L!
b00101000100000000000000001100101 N!
#14
b0001110000000000000000000000110000101000100000000000000001100101 #
b111100000000000000000001110000000000000000000000100000101000101100101011000010000100001000000000000000000000000000000000000000000000000000000000000000000000000000000000000000000000000000 &
b00011 ,
b00000 -
b000000000000011000000000000000010000000000000000001110000000000000000000000010000011100000000000000000100000100001000000111000000000000000000000001000001110000000000000000000000010000000000000000000000000000000000 1
b0010010000000000001010100000000100010010001110000000000000000000000000000000000000000000000000000000000 >
b01001 S
b00011100000000000000000000001000 t
b00011100000000000000000000001000 u
b00000000000000 w
b00000000000000000000000000000000 x
0{
b00011100000000000000000000001000 |
b00101000101100101011000010000100 !!
0%!
b00101000100000000000000001100101 &!
b00011100000000000000000000001100 '!
b00101 +!
b00 .!
b00000 /!
b000000000000 0!
b10000000000000 1!
b01000000000000000011 2!
b0010000000000000 3!
b00011001010010000000000000 4!
b0001 7!
b00000000000000000000000000000001 8!
b01000000000000000011000000000000 9!
b00011100000000000000000000010000 @!
b00000000000001 B!
1C!
b00000000000000001000000000000000 D!
b00011100000000000000000000000100 E!
b00011100000000000000000100000100 F!
b00100 G!
b00011100000000000000000000000100 I!
b00011100000000000000000000000100 J!
1K!
1L!
b00011100000000000000000000010000 O!
#15
0L!
b00000010100000000001000001100110 N!
#16
b0001110000000000000000000001000000000010100000000001000001100110 #
b111100000000000000000001110000000000000000000000110000101000100000000000000001100101001010000000000000000000000000000000000000000000000000000000000000000000000000000000000000000000000000 &
b00100 -
b000000000000000000000000000000000000000000000000001110000000000000000000000100000101000101100101011000010000100001000000111000000000000000000000010000001110000000000000000000000100000000000000000000000000000000000 1
b1001000000111000000000000000001000001000001110000000000000000000000010000000000000000000000000000000000 9
b0010010000000000001010100000000100010010001110000000000000000000000000000000000000000000000000000000000 B
b01001 G
b00000000000101010000000010001001 I
b00011100000000000000000000000000 J
b0000000000000000000000000000000000011100000000000000000000000000 L
b00001001 N
b00011100000000000000000000001100 t
b00011100000000000000000000001100 u
b00011100000000000000000000001100 |
b00101 ~
b00101000100000000000000001100101 !!
b00000010100000000001000001100110 &!
b00011100000000000000000000010000 '!
b00110 +!
b000000 ,!
b1010 -!
b000000000100 0!
b10000000000100 1!
b01000000000010000011 2!
b1010000000000100 3!
b00011001101010000000000100 4!
b00000000000000000000000000000001 5!
b0000010000000000 6!
b01000000000010000011000000000000 9!
b00000 ?!
b00011100000000000000000000010100 @!
b00000000000000 B!
0C!
b00000000000000000000000000000000 D!
b00011100000000000000000000001000 E!
b00101000101100101011000010000100 F!
b00011100000000000000000000001000 I!
b00011100000000000000000000001000 J!
1L!
b00011100000000000000000000010100 O!
#17
0L!
b00000000010001001001000001100011 N!
#18
b0001110000000000000000000001010000000000010001001001000001100011 #
b111100000000000000000001110000000000000000000001000000000010100000000001000001100110001100000000000000000000000000000000000000000000000000000000000000000000000000000000000000000000000000 &
b000000000000000000000000000000000000000000000000001110000000000000000000000110000101000100000000000000001100101001010000111000000000000000000000011000001110000000000000000000000110000000000000000000000000000000000 1
b0001000001010001011001010110000100001000001110000000000000000000000100000000000000000000000000000000000 9
b1001000000111000000000000000001000001000001110000000000000000000000010000000000000000000000000000000000 >
b00100 S
b00011100000000000000000000010000 t
b00011100000000000000000000010000 u
b00011100000000000000000000010000 |
b00110 ~
b00000010100000000001000001100110 !!
b00000000010001001001000001100011 &!
b00011100000000000000000000010100 '!
b00011 +!
b0001 -!
b01001 /!
b000100100100 0!
b01000100100100 1!
b00100010010010000011 2!
b0001000100100100 3!
b00011000110001000100100100 4!
b0000000000000010 6!
b00000000000000000000001000000000 8!
b00100010010010000011000000000000 9!
b00011100000000000000000000011000 @!
b00011100000000000000000000001100 E!
b00101000100000000000000001100101 F!
b00101 G!
b00011100000000000000000000001100 I!
b00011100000000000000000000001100 J!
1L!
b00011100000000000000000000011000 O!
#19
0L!
b00000000010000001001000001100011 N!
#20
b0001110000000000000000000001100000000000010000001001000001100011 #
b111100000000000000000001110000000000000000000001010000000000010001001001000001100011000110000000000000000000000000000000000000000000000000000000000000000000000000000000000000000000000000 &
b000000000000000000000000000000000000000000000000001110000000000000000000001000000000010100000000001000001100110001100000111000000000000000000000100000001110000000000000000000001000000000000000000000000000000000000 1
b0001010001010001000000000000000011001010001110000000000000000000000110000000000000000000000000000000000 9
b0001000001010001011001010110000100001000001110000000000000000000000100000000000000000000000000000000000 >
b1001000000111000000000000000001000001000001110000000000000000000000010000000000000000000000000000000000 B
1F
b00100 G
b00011100000000000000000100000100 I
b00011100000000000000000000000100 J
b0000000000000000000000000000000000011100000000000000000000000100 L
b00000100 N
b00011100000000000000000000010100 t
b00011100000000000000000000010100 u
b00011100000000000000000000010100 |
b00011 ~
b00000000010001001001000001100011 !!
b00000000010000001001000001100011 &!
b00011100000000000000000000011000 '!
b00001 /!
b000000100100 0!
b01000000100100 1!
b00100000010010000011 2!
b0001000000100100 3!
b00011000110001000000100100 4!
b00000000000000000000000000000010 8!
b00100000010010000011000000000000 9!
b00011100000000000000000000011100 @!
b00011100000000000000000000010000 E!
b00000010100000000001000001100110 F!
b00110 G!
b00011100000000000000000000010000 I!
b00011100000000000000000000010000 J!
1L!
b00011100000000000000000000011100 O!
#21
0L!
b00011100000000000000000100000111 N!
#22
b0001110000000000000000000001110000011100000000000000000100000111 #
b111100000000000000000001110000000000000000000001100000000000010000001001000001100011000110000000000000000000000000000000000000000000000000000000000000000000000000000000000000000000000000 &
b01000 ,
b00000 -
b000000000000000000000000000000000000000000000000001110000000000000000000001010000000000010001001001000001100011000110000111000000000000000000000101000001110000000000000000000001010000000000000000000000000000000000 1
b0001100000000101000000000010000011001100001110000000000000000000001000000000000000000000000000000000000 9
b0001010001010001000000000000000011001010001110000000000000000000000110000000000000000000000000000000000 >
b0001000001010001011001010110000100001000001110000000000000000000000100000000000000000000000000000000000 B
0F
b00101000101100101011000010000100 I
b00011100000000000000000000001000 J
b0000000000000000000000000000000000011100000000000000000000001000 L
b00101 S
b00011100000000000000000000011000 t
b00011100000000000000000000011000 u
b00011100000000000000000000011000 |
b00000000010000001001000001100011 !!
b00011100000000000000000100000111 &!
b00011100000000000000000000011100 '!
b00000000000001 (!
b00000000000000001000000000000000 )!
b00111 +!
b000111 ,!
b0000 -!
b00000 /!
b000000000000 0!
b00000000000000 1!
b00000000000000001000 2!
b0000000000000000 3!
b01000001110000000000000000 4!
b00000000000000000000000010000000 5!
b0000000000000001 6!
b00000000000000000000000000000001 8!
b00000000000000001000000000000000 9!
1<!
1>!
b00111 ?!
b00011100000000000000000000100000 @!
b00011100000000000000000000010100 E!
b00000000010001001001000001100011 F!
b00011 G!
b00011100000000000000000000010100 I!
b00011100000000000000000000010100 J!
1L!
b00011100000000000000000000100000 O!
