testbench/waveform.vcd
$version Generated by VerilatedVcd $end
$date Mon Apr 24 15:26:31 2023 $end
$timescale 1ps $end

 $scope module TOP $end
  $var wire 32 s" PC [31:0] $end
  $var wire 32 w" addr [31:0] $end
  $var wire  1 p" clk $end
  $var wire  1 z" en $end
  $var wire 32 r" inst [31:0] $end
  $var wire  1 u" inst_ready $end
  $var wire  1 t" pc_valid $end
  $var wire 32 v" rdata [31:0] $end
  $var wire  1 q" reset $end
  $var wire 32 x" wdata [31:0] $end
  $var wire  4 y" wmask [3:0] $end
  $scope module Top $end
   $var wire 32 s" PC [31:0] $end
   $var wire 32 w" addr [31:0] $end
   $var wire  1 p" clk $end
   $var wire 32 I difftest_Inst [31:0] $end
   $var wire 32 J difftest_PC [31:0] $end
   $var wire 103 B difftest_bus [102:0] $end
   $var wire  1 F difftest_inst_valid $end
   $var wire 32 K difftest_result [31:0] $end
   $var wire  1 H difftest_wreg_en $end
   $var wire  5 G difftest_wreg_index [4:0] $end
   $var wire  1 z" en $end
   $var wire 213 1 ex_bus [212:0] $end
   $var wire  1 {" ex_right_ready $end
   $var wire  1 8 ex_right_valid $end
   $var wire 186 & id_bus [185:0] $end
   $var wire  1 {" id_right_ready $end
   $var wire  1 0 id_right_valid $end
   $var wire 64 # if_bus [63:0] $end
   $var wire  1 {" if_right_ready $end
   $var wire  1 % if_right_valid $end
   $var wire 32 r" inst [31:0] $end
   $var wire  1 u" inst_ready $end
   $var wire 103 9 mem_bus [102:0] $end
   $var wire  1 {" mem_right_ready $end
   $var wire  1 = mem_right_valid $end
   $var wire  1 t" pc_valid $end
   $var wire 32 v" rdata [31:0] $end
   $var wire 32 . reg_data1 [31:0] $end
   $var wire 32 / reg_data2 [31:0] $end
   $var wire  5 , reg_index1 [4:0] $end
   $var wire  5 - reg_index2 [4:0] $end
   $var wire 32 L regs[0] [31:0] $end
   $var wire 32 V regs[10] [31:0] $end
   $var wire 32 W regs[11] [31:0] $end
   $var wire 32 X regs[12] [31:0] $end
   $var wire 32 Y regs[13] [31:0] $end
   $var wire 32 Z regs[14] [31:0] $end
   $var wire 32 [ regs[15] [31:0] $end
   $var wire 32 \ regs[16] [31:0] $end
   $var wire 32 ] regs[17] [31:0] $end
   $var wire 32 ^ regs[18] [31:0] $end
   $var wire 32 _ regs[19] [31:0] $end
   $var wire 32 M regs[1] [31:0] $end
   $var wire 32 ` regs[20] [31:0] $end
   $var wire 32 a regs[21] [31:0] $end
   $var wire 32 b regs[22] [31:0] $end
   $var wire 32 c regs[23] [31:0] $end
   $var wire 32 d regs[24] [31:0] $end
   $var wire 32 e regs[25] [31:0] $end
   $var wire 32 f regs[26] [31:0] $end
   $var wire 32 g regs[27] [31:0] $end
   $var wire 32 h regs[28] [31:0] $end
   $var wire 32 i regs[29] [31:0] $end
   $var wire 32 N regs[2] [31:0] $end
   $var wire 32 j regs[30] [31:0] $end
   $var wire 32 k regs[31] [31:0] $end
   $var wire 32 O regs[3] [31:0] $end
   $var wire 32 P regs[4] [31:0] $end
   $var wire 32 Q regs[5] [31:0] $end
   $var wire 32 R regs[6] [31:0] $end
   $var wire 32 S regs[7] [31:0] $end
   $var wire 32 T regs[8] [31:0] $end
   $var wire 32 U regs[9] [31:0] $end
   $var wire  1 q" reset $end
   $var wire 103 > wb_bus [102:0] $end
   $var wire 32 x" wdata [31:0] $end
   $var wire  4 y" wmask [3:0] $end
   $scope module DifftestGRegState $end
    $var wire  1 p" clock $end
    $var wire  8 |" coreid [7:0] $end
    $var wire 64 }" gpr_0 [63:0] $end
    $var wire 64 l gpr_1 [63:0] $end
    $var wire 64 ~ gpr_10 [63:0] $end
    $var wire 64 "! gpr_11 [63:0] $end
    $var wire 64 $! gpr_12 [63:0] $end
    $var wire 64 &! gpr_13 [63:0] $end
    $var wire 64 (! gpr_14 [63:0] $end
    $var wire 64 *! gpr_15 [63:0] $end
    $var wire 64 ,! gpr_16 [63:0] $end
    $var wire 64 .! gpr_17 [63:0] $end
    $var wire 64 0! gpr_18 [63:0] $end
    $var wire 64 2! gpr_19 [63:0] $end
    $var wire 64 n gpr_2 [63:0] $end
    $var wire 64 4! gpr_20 [63:0] $end
    $var wire 64 6! gpr_21 [63:0] $end
    $var wire 64 8! gpr_22 [63:0] $end
    $var wire 64 :! gpr_23 [63:0] $end
    $var wire 64 <! gpr_24 [63:0] $end
    $var wire 64 >! gpr_25 [63:0] $end
    $var wire 64 @! gpr_26 [63:0] $end
    $var wire 64 B! gpr_27 [63:0] $end
    $var wire 64 D! gpr_28 [63:0] $end
    $var wire 64 F! gpr_29 [63:0] $end
    $var wire 64 p gpr_3 [63:0] $end
    $var wire 64 H! gpr_30 [63:0] $end
    $var wire 64 J! gpr_31 [63:0] $end
    $var wire 64 r gpr_4 [63:0] $end
    $var wire 64 t gpr_5 [63:0] $end
    $var wire 64 v gpr_6 [63:0] $end
    $var wire 64 x gpr_7 [63:0] $end
    $var wire 64 z gpr_8 [63:0] $end
    $var wire 64 | gpr_9 [63:0] $end
   $upscope $end
   $scope module DifftestInstrCommit $end
    $var wire  5 "# TLBFILL_index [4:0] $end
    $var wire  1 p" clock $end
    $var wire  8 |" coreid [7:0] $end
    $var wire 32 ## csr_data [31:0] $end
    $var wire  1 !# csr_rstat $end
    $var wire  8 |" index [7:0] $end
    $var wire 32 I instr [31:0] $end
    $var wire  1 !# is_CNTinst $end
    $var wire  1 !# is_TLBFILL $end
    $var wire 64 L! pc [63:0] $end
    $var wire  1 !# skip $end
    $var wire 64 }" timer_64_value [63:0] $end
    $var wire  1 F valid $end
    $var wire 64 O! wdata [63:0] $end
    $var wire  8 N! wdest [7:0] $end
    $var wire  1 H wen $end
   $upscope $end
   $scope module Regfile $end
    $var wire  1 p" clk $end
    $var wire 32 . data1 [31:0] $end
    $var wire 32 / data2 [31:0] $end
    $var wire  5 , reg_index1 [4:0] $end
    $var wire  5 - reg_index2 [4:0] $end
    $var wire  1 q" reset $end
    $var wire 32 t! rf[0] [31:0] $end
    $var wire 32 ~! rf[10] [31:0] $end
    $var wire 32 !" rf[11] [31:0] $end
    $var wire 32 "" rf[12] [31:0] $end
    $var wire 32 #" rf[13] [31:0] $end
    $var wire 32 $" rf[14] [31:0] $end
    $var wire 32 %" rf[15] [31:0] $end
    $var wire 32 &" rf[16] [31:0] $end
    $var wire 32 '" rf[17] [31:0] $end
    $var wire 32 (" rf[18] [31:0] $end
    $var wire 32 )" rf[19] [31:0] $end
    $var wire 32 u! rf[1] [31:0] $end
    $var wire 32 *" rf[20] [31:0] $end
    $var wire 32 +" rf[21] [31:0] $end
    $var wire 32 ," rf[22] [31:0] $end
    $var wire 32 -" rf[23] [31:0] $end
    $var wire 32 ." rf[24] [31:0] $end
    $var wire 32 /" rf[25] [31:0] $end
    $var wire 32 0" rf[26] [31:0] $end
    $var wire 32 1" rf[27] [31:0] $end
    $var wire 32 2" rf[28] [31:0] $end
    $var wire 32 3" rf[29] [31:0] $end
    $var wire 32 v! rf[2] [31:0] $end
    $var wire 32 4" rf[30] [31:0] $end
    $var wire 32 5" rf[31] [31:0] $end
    $var wire 32 w! rf[3] [31:0] $end
    $var wire 32 x! rf[4] [31:0] $end
    $var wire 32 y! rf[5] [31:0] $end
    $var wire 32 z! rf[6] [31:0] $end
    $var wire 32 {! rf[7] [31:0] $end
    $var wire 32 |! rf[8] [31:0] $end
    $var wire 32 }! rf[9] [31:0] $end
    $var wire 32 T! rf_o[0] [31:0] $end
    $var wire 32 ^! rf_o[10] [31:0] $end
    $var wire 32 _! rf_o[11] [31:0] $end
    $var wire 32 `! rf_o[12] [31:0] $end
    $var wire 32 a! rf_o[13] [31:0] $end
    $var wire 32 b! rf_o[14] [31:0] $end
    $var wire 32 c! rf_o[15] [31:0] $end
    $var wire 32 d! rf_o[16] [31:0] $end
    $var wire 32 e! rf_o[17] [31:0] $end
    $var wire 32 f! rf_o[18] [31:0] $end
    $var wire 32 g! rf_o[19] [31:0] $end
    $var wire 32 U! rf_o[1] [31:0] $end
    $var wire 32 h! rf_o[20] [31:0] $end
    $var wire 32 i! rf_o[21] [31:0] $end
    $var wire 32 j! rf_o[22] [31:0] $end
    $var wire 32 k! rf_o[23] [31:0] $end
    $var wire 32 l! rf_o[24] [31:0] $end
    $var wire 32 m! rf_o[25] [31:0] $end
    $var wire 32 n! rf_o[26] [31:0] $end
    $var wire 32 o! rf_o[27] [31:0] $end
    $var wire 32 p! rf_o[28] [31:0] $end
    $var wire 32 q! rf_o[29] [31:0] $end
    $var wire 32 V! rf_o[2] [31:0] $end
    $var wire 32 r! rf_o[30] [31:0] $end
    $var wire 32 s! rf_o[31] [31:0] $end
    $var wire 32 W! rf_o[3] [31:0] $end
    $var wire 32 X! rf_o[4] [31:0] $end
    $var wire 32 Y! rf_o[5] [31:0] $end
    $var wire 32 Z! rf_o[6] [31:0] $end
    $var wire 32 [! rf_o[7] [31:0] $end
    $var wire 32 \! rf_o[8] [31:0] $end
    $var wire 32 ]! rf_o[9] [31:0] $end
    $var wire 32 R! wdata [31:0] $end
    $var wire  1 Q! wreg_en $end
    $var wire  5 S! wreg_index [4:0] $end
   $upscope $end
   $scope module exe_stage $end
    $var wire 32 :" Imm [31:0] $end
    $var wire 32 A" Inst [31:0] $end
    $var wire 32 >" PC [31:0] $end
    $var wire 14 9" alu_op [13:0] $end
    $var wire 32 D" alu_result [31:0] $end
    $var wire  1 p" clk $end
    $var wire 213 1 ctrl_temp_bus [212:0] $end
    $var wire 213 1 ex_ctrl_bus [212:0] $end
    $var wire 186 & id_ctrl_bus [185:0] $end
    $var wire  1 =" inst_valid $end
    $var wire  1 8" is_sign $end
    $var wire  1 {" left_ready $end
    $var wire  1 0 left_valid $end
    $var wire 32 ;" reg1 [31:0] $end
    $var wire 32 <" reg2 [31:0] $end
    $var wire  1 q" reset $end
    $var wire  1 8 right_fire $end
    $var wire  1 {" right_ready $end
    $var wire  1 8 right_valid $end
    $var wire  2 B" select_src1 [1:0] $end
    $var wire  2 C" select_src2 [1:0] $end
    $var wire 32 6" src1 [31:0] $end
    $var wire 32 7" src2 [31:0] $end
    $var wire  1 8 valid $end
    $var wire  1 ?" wreg_en $end
    $var wire  5 @" wreg_index [4:0] $end
    $scope module alu $end
     $var wire 32 $# add_result [31:0] $end
     $var wire 32 6" adder_a [31:0] $end
     $var wire 32 7" adder_b [31:0] $end
     $var wire  1 %# adder_cin $end
     $var wire  1 H" adder_cout $end
     $var wire 32 G" adder_result [31:0] $end
     $var wire 14 9" alu_op [13:0] $end
     $var wire 32 D" alu_result [31:0] $end
     $var wire 32 6" alu_src1 [31:0] $end
     $var wire 32 7" alu_src2 [31:0] $end
     $var wire  1 E" op_add $end
     $var wire  1 F" op_imm $end
    $upscope $end
   $upscope $end
   $scope module id_stage $end
    $var wire 32 L" Imm [31:0] $end
    $var wire 32 &# Imm12 [31:0] $end
    $var wire  1 !# Imm12_en $end
    $var wire 32 '# Imm14 [31:0] $end
    $var wire 32 (# Imm16 [31:0] $end
    $var wire 32 \" Imm20 [31:0] $end
    $var wire  1 b" Imm20_en $end
    $var wire 32 )# Imm26 [31:0] $end
    $var wire 32 I" Inst [31:0] $end
    $var wire 32 J" PC [31:0] $end
    $var wire 14 K" alu_op [13:0] $end
    $var wire 186 & bus_temp [185:0] $end
    $var wire  1 p" clk $end
    $var wire 186 & ctrl_bus [185:0] $end
    $var wire 32 [" decoder_op_19_15 [31:0] $end
    $var wire  4 Z" decoder_op_21_20 [3:0] $end
    $var wire 16 Y" decoder_op_25_22 [15:0] $end
    $var wire 32 X" decoder_op_31_26 [31:0] $end
    $var wire 12 S" i12 [11:0] $end
    $var wire 14 T" i14 [13:0] $end
    $var wire 16 V" i16 [15:0] $end
    $var wire 20 U" i20 [19:0] $end
    $var wire 26 W" i26 [25:0] $end
    $var wire  1 _" inst_add $end
    $var wire  1 a" inst_lu12i $end
    $var wire  1 *# inst_or $end
    $var wire  1 `" inst_pcaddu12i $end
    $var wire  1 M" inst_valid $end
    $var wire  1 !# is_sign $end
    $var wire  1 !# is_sign_extend $end
    $var wire  1 {" left_ready $end
    $var wire  1 % left_valid $end
    $var wire  5 R" op_19_15 [4:0] $end
    $var wire  2 Q" op_21_20 [1:0] $end
    $var wire  4 P" op_25_22 [3:0] $end
    $var wire  6 O" op_31_26 [5:0] $end
    $var wire  5 N" rd [4:0] $end
    $var wire 32 . reg_data1 [31:0] $end
    $var wire 32 / reg_data2 [31:0] $end
    $var wire  5 , reg_index1 [4:0] $end
    $var wire  5 - reg_index2 [4:0] $end
    $var wire  1 q" reset $end
    $var wire  1 0 right_fire $end
    $var wire  1 {" right_ready $end
    $var wire  1 0 right_valid $end
    $var wire  5 , rj [4:0] $end
    $var wire  5 - rk [4:0] $end
    $var wire  2 ]" select_src1 [1:0] $end
    $var wire  2 ^" select_src2 [1:0] $end
    $var wire 32 . src1 [31:0] $end
    $var wire 32 / src2 [31:0] $end
    $var wire  1 0 valid $end
    $var wire  1 M" wreg_en $end
    $var wire  5 N" wreg_index [4:0] $end
    $scope module decoder_2_4 $end
     $var wire  2 Q" in [1:0] $end
     $var wire  4 Z" out [3:0] $end
    $upscope $end
    $scope module decoder_4_16 $end
     $var wire  4 P" in [3:0] $end
     $var wire 16 Y" out [15:0] $end
    $upscope $end
    $scope module decoder_5_32_0 $end
     $var wire  5 c" in [4:0] $end
     $var wire 32 X" out [31:0] $end
    $upscope $end
    $scope module decoder_5_32_1 $end
     $var wire  5 R" in [4:0] $end
     $var wire 32 [" out [31:0] $end
    $upscope $end
   $upscope $end
   $scope module if_stage $end
    $var wire 32 r" Inst [31:0] $end
    $var wire 32 s" PC [31:0] $end
    $var wire 64 # bus_temp [63:0] $end
    $var wire  1 p" clk $end
    $var wire 64 # data_bus [63:0] $end
    $var wire  1 u" inst_ready $end
    $var wire  1 t" pc_valid $end
    $var wire  1 q" reset $end
    $var wire  1 % right_fire $end
    $var wire  1 {" right_ready $end
    $var wire  1 % right_valid $end
    $var wire 32 d" temp [31:0] $end
    $var wire  1 % valid $end
   $upscope $end
   $scope module mem_stage $end
    $var wire 32 h" Imm [31:0] $end
    $var wire 32 j" Inst [31:0] $end
    $var wire 32 i" PC [31:0] $end
    $var wire 32 w" addr [31:0] $end
    $var wire 14 f" alu_op [13:0] $end
    $var wire 32 e" alu_result [31:0] $end
    $var wire 103 9 bus_temp [102:0] $end
    $var wire  1 p" clk $end
    $var wire  1 z" en $end
    $var wire  1 g" inst_valid $end
    $var wire  1 {" left_ready $end
    $var wire  1 8 left_valid $end
    $var wire 213 1 mem_ctrl_bus [212:0] $end
    $var wire 32 e" mem_result [31:0] $end
    $var wire 32 v" rdata [31:0] $end
    $var wire  1 q" reset $end
    $var wire  1 = right_fire $end
    $var wire  1 {" right_ready $end
    $var wire  1 = right_valid $end
    $var wire 32 m" src1 [31:0] $end
    $var wire 32 n" src2 [31:0] $end
    $var wire  1 = valid $end
    $var wire 103 9 wb_ctrl_bus [102:0] $end
    $var wire 32 x" wdata [31:0] $end
    $var wire  4 y" wmask [3:0] $end
    $var wire  1 l" wreg_en $end
    $var wire  5 k" wreg_index [4:0] $end
   $upscope $end
   $scope module wb_syage $end
    $var wire 103 > bus_temp [102:0] $end
    $var wire  1 p" clk $end
    $var wire  1 {" left_ready $end
    $var wire  1 = left_valid $end
    $var wire 103 9 mem_ctrl_bus [102:0] $end
    $var wire  1 q" reset $end
    $var wire  1 o" right_fire $end
    $var wire  1 {" right_ready $end
    $var wire  1 o" right_valid $end
    $var wire  1 o" valid $end
    $var wire 103 > wb_ctrl_bus [102:0] $end
   $upscope $end
  $upscope $end
 $upscope $end
$enddefinitions $end


#0
b0000000000000000000000000000000000000000000000000000000000000000 #
0%
b000000000000000000000000000000000000000000000000000000000000000000000000000000000000000000000000000000000000000000000000000000000000000000000000000000000000000000000000000000000000000000 &
b00000 ,
b00000 -
b00000000000000000000000000000000 .
b00000000000000000000000000000000 /
00
b000000000000000000000000000000000000000000000000000000000000000000000000000000000000000000000000000000000000000000000000000000000000000000000000000000000000000000000000000000000000000000000000000000000000000000000 1
08
b0000000000000000000000000000000000000000000000000000000000000000000000000000000000000000000000000000000 9
0=
b0000000000000000000000000000000000000000000000000000000000000000000000000000000000000000000000000000000 >
b0000000000000000000000000000000000000000000000000000000000000000000000000000000000000000000000000000000 B
0F
b00000 G
0H
b00000000000000000000000000000000 I
b00000000000000000000000000000000 J
b00000000000000000000000000000000 K
b00000000000000000000000000000000 L
b00000000000000000000000000000000 M
b00000000000000000000000000000000 N
b00000000000000000000000000000000 O
b00000000000000000000000000000000 P
b00000000000000000000000000000000 Q
b00000000000000000000000000000000 R
b00000000000000000000000000000000 S
b00000000000000000000000000000000 T
b00000000000000000000000000000000 U
b00000000000000000000000000000000 V
b00000000000000000000000000000000 W
b00000000000000000000000000000000 X
b00000000000000000000000000000000 Y
b00000000000000000000000000000000 Z
b00000000000000000000000000000000 [
b00000000000000000000000000000000 \
b00000000000000000000000000000000 ]
b00000000000000000000000000000000 ^
b00000000000000000000000000000000 _
b00000000000000000000000000000000 `
b00000000000000000000000000000000 a
b00000000000000000000000000000000 b
b00000000000000000000000000000000 c
b00000000000000000000000000000000 d
b00000000000000000000000000000000 e
b00000000000000000000000000000000 f
b00000000000000000000000000000000 g
b00000000000000000000000000000000 h
b00000000000000000000000000000000 i
b00000000000000000000000000000000 j
b00000000000000000000000000000000 k
b0000000000000000000000000000000000000000000000000000000000000000 l
b0000000000000000000000000000000000000000000000000000000000000000 n
b0000000000000000000000000000000000000000000000000000000000000000 p
b0000000000000000000000000000000000000000000000000000000000000000 r
b0000000000000000000000000000000000000000000000000000000000000000 t
b0000000000000000000000000000000000000000000000000000000000000000 v
b0000000000000000000000000000000000000000000000000000000000000000 x
b0000000000000000000000000000000000000000000000000000000000000000 z
b0000000000000000000000000000000000000000000000000000000000000000 |
b0000000000000000000000000000000000000000000000000000000000000000 ~
b0000000000000000000000000000000000000000000000000000000000000000 "!
b0000000000000000000000000000000000000000000000000000000000000000 $!
b0000000000000000000000000000000000000000000000000000000000000000 &!
b0000000000000000000000000000000000000000000000000000000000000000 (!
b0000000000000000000000000000000000000000000000000000000000000000 *!
b0000000000000000000000000000000000000000000000000000000000000000 ,!
b0000000000000000000000000000000000000000000000000000000000000000 .!
b0000000000000000000000000000000000000000000000000000000000000000 0!
b0000000000000000000000000000000000000000000000000000000000000000 2!
b0000000000000000000000000000000000000000000000000000000000000000 4!
b0000000000000000000000000000000000000000000000000000000000000000 6!
b0000000000000000000000000000000000000000000000000000000000000000 8!
b0000000000000000000000000000000000000000000000000000000000000000 :!
b0000000000000000000000000000000000000000000000000000000000000000 <!
b0000000000000000000000000000000000000000000000000000000000000000 >!
b0000000000000000000000000000000000000000000000000000000000000000 @!
b0000000000000000000000000000000000000000000000000000000000000000 B!
b0000000000000000000000000000000000000000000000000000000000000000 D!
b0000000000000000000000000000000000000000000000000000000000000000 F!
b0000000000000000000000000000000000000000000000000000000000000000 H!
b0000000000000000000000000000000000000000000000000000000000000000 J!
b0000000000000000000000000000000000000000000000000000000000000000 L!
b00000000 N!
b0000000000000000000000000000000000000000000000000000000000000000 O!
0Q!
b00000000000000000000000000000000 R!
b00000 S!
b00000000000000000000000000000000 T!
b00000000000000000000000000000000 U!
b00000000000000000000000000000000 V!
b00000000000000000000000000000000 W!
b00000000000000000000000000000000 X!
b00000000000000000000000000000000 Y!
b00000000000000000000000000000000 Z!
b00000000000000000000000000000000 [!
b00000000000000000000000000000000 \!
b00000000000000000000000000000000 ]!
b00000000000000000000000000000000 ^!
b00000000000000000000000000000000 _!
b00000000000000000000000000000000 `!
b00000000000000000000000000000000 a!
b00000000000000000000000000000000 b!
b00000000000000000000000000000000 c!
b00000000000000000000000000000000 d!
b00000000000000000000000000000000 e!
b00000000000000000000000000000000 f!
b00000000000000000000000000000000 g!
b00000000000000000000000000000000 h!
b00000000000000000000000000000000 i!
b00000000000000000000000000000000 j!
b00000000000000000000000000000000 k!
b00000000000000000000000000000000 l!
b00000000000000000000000000000000 m!
b00000000000000000000000000000000 n!
b00000000000000000000000000000000 o!
b00000000000000000000000000000000 p!
b00000000000000000000000000000000 q!
b00000000000000000000000000000000 r!
b00000000000000000000000000000000 s!
b00000000000000000000000000000000 t!
b00000000000000000000000000000000 u!
b00000000000000000000000000000000 v!
b00000000000000000000000000000000 w!
b00000000000000000000000000000000 x!
b00000000000000000000000000000000 y!
b00000000000000000000000000000000 z!
b00000000000000000000000000000000 {!
b00000000000000000000000000000000 |!
b00000000000000000000000000000000 }!
b00000000000000000000000000000000 ~!
b00000000000000000000000000000000 !"
b00000000000000000000000000000000 ""
b00000000000000000000000000000000 #"
b00000000000000000000000000000000 $"
b00000000000000000000000000000000 %"
b00000000000000000000000000000000 &"
b00000000000000000000000000000000 '"
b00000000000000000000000000000000 ("
b00000000000000000000000000000000 )"
b00000000000000000000000000000000 *"
b00000000000000000000000000000000 +"
b00000000000000000000000000000000 ,"
b00000000000000000000000000000000 -"
b00000000000000000000000000000000 ."
b00000000000000000000000000000000 /"
b00000000000000000000000000000000 0"
b00000000000000000000000000000000 1"
b00000000000000000000000000000000 2"
b00000000000000000000000000000000 3"
b00000000000000000000000000000000 4"
b00000000000000000000000000000000 5"
b00000000000000000000000000000000 6"
b00000000000000000000000000000000 7"
08"
b00000000000000 9"
b00000000000000000000000000000000 :"
b00000000000000000000000000000000 ;"
b00000000000000000000000000000000 <"
0="
b00000000000000000000000000000000 >"
0?"
b00000 @"
b00000000000000000000000000000000 A"
b00 B"
b00 C"
b00000000000000000000000000000000 D"
0E"
0F"
b00000000000000000000000000000000 G"
0H"
b00000000000000000000000000000000 I"
b00000000000000000000000000000000 J"
b00000000000000 K"
b00000000000000000000000000000000 L"
0M"
b00000 N"
b000000 O"
b0000 P"
b00 Q"
b00000 R"
b000000000000 S"
b00000000000000 T"
b00000000000000000000 U"
b0000000000000000 V"
b00000000000000000000000000 W"
b00000000000000000000000000000001 X"
b0000000000000001 Y"
b0001 Z"
b00000000000000000000000000000001 ["
b00000000000000000000000000000000 \"
b00 ]"
b00 ^"
0_"
0`"
0a"
0b"
b00000 c"
b00000000000000000000000000000000 d"
b00000000000000000000000000000000 e"
b00000000000000 f"
0g"
b00000000000000000000000000000000 h"
b00000000000000000000000000000000 i"
b00000000000000000000000000000000 j"
b00000 k"
0l"
b00000000000000000000000000000000 m"
b00000000000000000000000000000000 n"
0o"
1p"
1q"
b00000000000000000000000000000000 r"
b00000000000000000000000000000000 s"
1t"
0u"
b00000000000000000000000000000000 v"
b00000000000000000000000000000000 w"
b00000000000000000000000000000000 x"
b0000 y"
0z"
1{"
b00000000 |"
b0000000000000000000000000000000000000000000000000000000000000000 }"
0!#
b00000 "#
b00000000000000000000000000000000 ##
b00000000000000000000000000000000 $#
0%#
b00000000000000000000000000000000 &#
b00000000000000000000000000000000 '#
b00000000000000000000000000000000 (#
b00000000000000000000000000000000 )#
0*#
#1
0p"
#2
b00011100000000000000000000000000 d"
1p"
b00011100000000000000000000000000 s"
#3
0p"
#4
1p"
#5
0p"
0q"
b00000000000100000000000000010111 r"
1u"
#6
b0001110000000000000000000000000000000000000100000000000000010111 #
1%
b00000000000100000000000000010111 I"
b00011100000000000000000000000000 J"
b00000000000001 K"
1M"
b10111 N"
b01 Q"
b010000000000 S"
b00010000000000 T"
b00001000000000000000 U"
b0000010000000000 V"
b00000101110000010000000000 W"
b0010 Z"
b00001000000000000000000000000000 \"
1_"
b00011100000000000000000000000100 d"
1p"
b00011100000000000000000000000100 s"
#7
0p"
b00010100001110000000000100100011 r"
#8
b0001110000000000000000000000010000010100001110000000000100100011 #
b000000000000000000110001110000000000000000000000000000000000000100000000000000010111101111000000000000000000000000000000000000000000000000000000000000000000000000000000000000000000000000 &
b01001 ,
10
b00000000000001 9"
1="
b00011100000000000000000000000000 >"
1?"
b10111 @"
b00000000000100000000000000010111 A"
1E"
b00010100001110000000000100100011 I"
b00011100000000000000000000000100 J"
b00000000000010 K"
b00011100000000001001000000000000 L"
b00011 N"
b000101 O"
b11 Q"
b10000 R"
b111000000000 S"
b00111000000000 T"
b00011100000000001001 U"
b0000111000000000 V"
b01001000110000111000000000 W"
b00000000000000000000000000100000 X"
b1000 Z"
b00000000000000010000000000000000 ["
b00011100000000001001000000000000 \"
b01 ]"
0_"
1a"
1b"
b00101 c"
b00011100000000000000000000001000 d"
1p"
b00011100000000000000000000001000 s"
#9
0p"
b00000011100000000000000001100011 r"
#10
b0001110000000000000000000000100000000011100000000000000001100011 #
b010000000000000001010001110000000000000000000000010000010100001110000000000100100011000111000000000000000000000000000000000000000000000000000000000000000000011100000000001001000000000000 &
b00011 ,
b000000000000011000000000000000000000000000000000001110000000000000000000000000000000000000100000000000000010111101111000000000000000000000000000000000000000000000000000000000000000000000000000000000000000000000000 1
18
b00011100000000001001000000000000 6"
b00000000000010 9"
b00011100000000001001000000000000 :"
b00011100000000000000000000000100 >"
b00011 @"
b00010100001110000000000100100011 A"
b01 B"
b00011100000000001001000000000000 D"
0E"
1F"
b00011100000000001001000000000000 G"
b00000011100000000000000001100011 I"
b00011100000000000000000000001000 J"
b00000000000000 K"
b00000000000000000000000000000000 L"
0M"
b000000 O"
b1110 P"
b00 Q"
b00000 R"
b000000000000 S"
b10000000000000 T"
b11000000000000000011 U"
b1110000000000000 V"
b00011000111110000000000000 W"
b00000000000000000000000000000001 X"
b0100000000000000 Y"
b0001 Z"
b00000000000000000000000000000001 ["
b11000000000000000011000000000000 \"
b00 ]"
0a"
0b"
b00000 c"
b00011100000000000000000000001100 d"
b00000000000001 f"
1g"
b00011100000000000000000000000000 i"
b00000000000100000000000000010111 j"
b10111 k"
1l"
1p"
b00011100000000000000000000001100 s"
#11
0p"
b00010100001110000000000000011000 r"
#12
b0001110000000000000000000000110000010100001110000000000000011000 #
b000000000000000000000001110000000000000000000000100000000011100000000000000001100011000110000000000000000000000000000000000000000000000000000000000000000000000000000000000000000000000000 &
b00000 ,
b000000000000101000111000000000010010000000000000001110000000000000000000000010000010100001110000000000100100011000111000000000000000000000000000000000001110000000000100100000000000000011100000000001001000000000000 1
b1101111000000000001000000000000000101110001110000000000000000000000000000000000000000000000000000000000 9
1=
b00000000000000000000000000000000 6"
b00000000000000 9"
b00000000000000000000000000000000 :"
0="
b00011100000000000000000000001000 >"
0?"
b00000011100000000000000001100011 A"
b00 B"
b00000000000000000000000000000000 D"
0F"
b00000000000000000000000000000000 G"
b00010100001110000000000000011000 I"
b00011100000000000000000000001100 J"
b00000000000010 K"
b00011100000000000000000000000000 L"
1M"
b11000 N"
b000101 O"
b0000 P"
b11 Q"
b10000 R"
b111000000000 S"
b00111000000000 T"
b00011100000000000000 U"
b0000111000000000 V"
b00000110000000111000000000 W"
b00000000000000000000000000100000 X"
b0000000000000001 Y"
b1000 Z"
b00000000000000010000000000000000 ["
b00011100000000000000000000000000 \"
b01 ]"
1a"
1b"
b00101 c"
b00011100000000000000000000010000 d"
b00011100000000001001000000000000 e"
b00000000000010 f"
b00011100000000001001000000000000 h"
b00011100000000000000000000000100 i"
b00010100001110000000000100100011 j"
b00011 k"
b00011100000000001001000000000000 m"
1p"
b00011100000000000000000000010000 s"
#13
0p"
b00000011100000001110001100011000 r"
#14
b0001110000000000000000000001000000000011100000001110001100011000 #
b010000000000000001010001110000000000000000000000110000010100001110000000000000011000110001000000000000000000000000000000000000000000000000000000000000000000011100000000000000000000000000 &
b11000 ,
b11000 -
b000000000000000000000000000000000000000000000000001110000000000000000000000100000000011100000000000000001100011000110000000000000000000000000000000000000000000000000000000000000000000000000000000000000000000000000 1
b1000111000101000011100000000001001000110001110000000000000000000000010000011100000000001001000000000000 9
b1101111000000000001000000000000000101110001110000000000000000000000000000000000000000000000000000000000 >
1Q!
b10111 S!
b00011100000000000000000000000000 6"
b00000000000010 9"
b00011100000000000000000000000000 :"
1="
b00011100000000000000000000001100 >"
1?"
b11000 @"
b00010100001110000000000000011000 A"
b01 B"
b00011100000000000000000000000000 D"
1F"
b00011100000000000000000000000000 G"
b00000011100000001110001100011000 I"
b00011100000000000000000000010000 J"
b00000000000000 K"
b00000000000000000000000000000000 L"
0M"
b000000 O"
b1110 P"
b00 Q"
b00001 R"
b000000111000 S"
b10000000111000 T"
b11000000011100011000 U"
b1110000000111000 V"
b11000110001110000000111000 W"
b00000000000000000000000000000001 X"
b0100000000000000 Y"
b0001 Z"
b00000000000000000000000000000010 ["
b11000000011100011000000000000000 \"
b00 ]"
0a"
0b"
b00000 c"
b00011100000000000000000000010100 d"
b00000000000000000000000000000000 e"
b00000000000000 f"
0g"
b00000000000000000000000000000000 h"
b00011100000000000000000000001000 i"
b00000011100000000000000001100011 j"
0l"
b00000000000000000000000000000000 m"
1o"
1p"
b00011100000000000000000000010100 s"
#15
0p"
b01001100000000000000001100000000 r"
