testbench/waveform.vcd
$version Generated by VerilatedVcd $end
$date Thu Apr 27 22:51:29 2023 $end
$timescale 1ps $end

 $scope module TOP $end
  $var wire 32 9# PC [31:0] $end
  $var wire 32 =# addr [31:0] $end
  $var wire  1 6# clk $end
  $var wire  1 @# en $end
  $var wire 32 8# inst [31:0] $end
  $var wire  1 ;# inst_ready $end
  $var wire  1 :# pc_valid $end
  $var wire 32 <# rdata [31:0] $end
  $var wire  1 7# reset $end
  $var wire 32 ># wdata [31:0] $end
  $var wire  4 ?# wmask [3:0] $end
  $scope module Top $end
   $var wire 32 9# PC [31:0] $end
   $var wire 32 =# addr [31:0] $end
   $var wire 32 u bypass_reg1 [31:0] $end
   $var wire 32 v bypass_reg2 [31:0] $end
   $var wire  1 6# clk $end
   $var wire 32 R difftest_Inst [31:0] $end
   $var wire 32 S difftest_PC [31:0] $end
   $var wire 103 K difftest_bus [102:0] $end
   $var wire  1 O difftest_inst_valid $end
   $var wire 32 T difftest_result [31:0] $end
   $var wire  1 Q difftest_wreg_en $end
   $var wire  5 P difftest_wreg_index [4:0] $end
   $var wire 32 = dnpc [31:0] $end
   $var wire  1 @# en $end
   $var wire 213 2 ex_bus [212:0] $end
   $var wire 38 : ex_bypass [37:0] $end
   $var wire  1 A# ex_right_ready $end
   $var wire  1 9 ex_right_valid $end
   $var wire  1 < flush $end
   $var wire 194 & id_bus [193:0] $end
   $var wire  1 A# id_right_ready $end
   $var wire  1 1 id_right_valid $end
   $var wire 64 # if_bus [63:0] $end
   $var wire  1 A# if_right_ready $end
   $var wire  1 % if_right_valid $end
   $var wire 32 8# inst [31:0] $end
   $var wire  1 ;# inst_ready $end
   $var wire  1 < is_branch $end
   $var wire 103 > mem_bus [102:0] $end
   $var wire 38 C mem_bypass [37:0] $end
   $var wire  1 A# mem_right_ready $end
   $var wire  1 B mem_right_valid $end
   $var wire  1 :# pc_valid $end
   $var wire 32 <# rdata [31:0] $end
   $var wire 32 / reg_data1 [31:0] $end
   $var wire 32 0 reg_data2 [31:0] $end
   $var wire  5 - reg_index1 [4:0] $end
   $var wire  5 . reg_index2 [4:0] $end
   $var wire 32 U regs[0] [31:0] $end
   $var wire 32 _ regs[10] [31:0] $end
   $var wire 32 ` regs[11] [31:0] $end
   $var wire 32 a regs[12] [31:0] $end
   $var wire 32 b regs[13] [31:0] $end
   $var wire 32 c regs[14] [31:0] $end
   $var wire 32 d regs[15] [31:0] $end
   $var wire 32 e regs[16] [31:0] $end
   $var wire 32 f regs[17] [31:0] $end
   $var wire 32 g regs[18] [31:0] $end
   $var wire 32 h regs[19] [31:0] $end
   $var wire 32 V regs[1] [31:0] $end
   $var wire 32 i regs[20] [31:0] $end
   $var wire 32 j regs[21] [31:0] $end
   $var wire 32 k regs[22] [31:0] $end
   $var wire 32 l regs[23] [31:0] $end
   $var wire 32 m regs[24] [31:0] $end
   $var wire 32 n regs[25] [31:0] $end
   $var wire 32 o regs[26] [31:0] $end
   $var wire 32 p regs[27] [31:0] $end
   $var wire 32 q regs[28] [31:0] $end
   $var wire 32 r regs[29] [31:0] $end
   $var wire 32 W regs[2] [31:0] $end
   $var wire 32 s regs[30] [31:0] $end
   $var wire 32 t regs[31] [31:0] $end
   $var wire 32 X regs[3] [31:0] $end
   $var wire 32 Y regs[4] [31:0] $end
   $var wire 32 Z regs[5] [31:0] $end
   $var wire 32 [ regs[6] [31:0] $end
   $var wire 32 \ regs[7] [31:0] $end
   $var wire 32 ] regs[8] [31:0] $end
   $var wire 32 ^ regs[9] [31:0] $end
   $var wire  1 7# reset $end
   $var wire 103 E wb_bus [102:0] $end
   $var wire 38 I wb_bypass [37:0] $end
   $var wire 32 ># wdata [31:0] $end
   $var wire  4 ?# wmask [3:0] $end
   $scope module Bypass $end
    $var wire 32 u bypass_reg1 [31:0] $end
    $var wire 32 v bypass_reg2 [31:0] $end
    $var wire 38 : ex_bypass [37:0] $end
    $var wire  1 w ex_src1 $end
    $var wire  1 z ex_src2 $end
    $var wire  5 - index1 [4:0] $end
    $var wire  5 . index2 [4:0] $end
    $var wire 38 C mem_bypass [37:0] $end
    $var wire  1 x mem_src1 $end
    $var wire  1 { mem_src2 $end
    $var wire 32 / reg1 [31:0] $end
    $var wire 32 0 reg2 [31:0] $end
    $var wire 38 I wb_bypass [37:0] $end
    $var wire  1 y wb_src1 $end
    $var wire  1 | wb_src2 $end
   $upscope $end
   $scope module DifftestGRegState $end
    $var wire  1 6# clock $end
    $var wire  8 B# coreid [7:0] $end
    $var wire 64 C# gpr_0 [63:0] $end
    $var wire 64 } gpr_1 [63:0] $end
    $var wire 64 1! gpr_10 [63:0] $end
    $var wire 64 3! gpr_11 [63:0] $end
    $var wire 64 5! gpr_12 [63:0] $end
    $var wire 64 7! gpr_13 [63:0] $end
    $var wire 64 9! gpr_14 [63:0] $end
    $var wire 64 ;! gpr_15 [63:0] $end
    $var wire 64 =! gpr_16 [63:0] $end
    $var wire 64 ?! gpr_17 [63:0] $end
    $var wire 64 A! gpr_18 [63:0] $end
    $var wire 64 C! gpr_19 [63:0] $end
    $var wire 64 !! gpr_2 [63:0] $end
    $var wire 64 E! gpr_20 [63:0] $end
    $var wire 64 G! gpr_21 [63:0] $end
    $var wire 64 I! gpr_22 [63:0] $end
    $var wire 64 K! gpr_23 [63:0] $end
    $var wire 64 M! gpr_24 [63:0] $end
    $var wire 64 O! gpr_25 [63:0] $end
    $var wire 64 Q! gpr_26 [63:0] $end
    $var wire 64 S! gpr_27 [63:0] $end
    $var wire 64 U! gpr_28 [63:0] $end
    $var wire 64 W! gpr_29 [63:0] $end
    $var wire 64 #! gpr_3 [63:0] $end
    $var wire 64 Y! gpr_30 [63:0] $end
    $var wire 64 [! gpr_31 [63:0] $end
    $var wire 64 %! gpr_4 [63:0] $end
    $var wire 64 '! gpr_5 [63:0] $end
    $var wire 64 )! gpr_6 [63:0] $end
    $var wire 64 +! gpr_7 [63:0] $end
    $var wire 64 -! gpr_8 [63:0] $end
    $var wire 64 /! gpr_9 [63:0] $end
   $upscope $end
   $scope module DifftestInstrCommit $end
    $var wire  5 F# TLBFILL_index [4:0] $end
    $var wire  1 6# clock $end
    $var wire  8 B# coreid [7:0] $end
    $var wire 32 G# csr_data [31:0] $end
    $var wire  1 E# csr_rstat $end
    $var wire  8 B# index [7:0] $end
    $var wire 32 R instr [31:0] $end
    $var wire  1 E# is_CNTinst $end
    $var wire  1 E# is_TLBFILL $end
    $var wire 64 ]! pc [63:0] $end
    $var wire  1 E# skip $end
    $var wire 64 C# timer_64_value [63:0] $end
    $var wire  1 O valid $end
    $var wire 64 `! wdata [63:0] $end
    $var wire  8 _! wdest [7:0] $end
    $var wire  1 Q wen $end
   $upscope $end
   $scope module Regfile $end
    $var wire  1 6# clk $end
    $var wire 32 / data1 [31:0] $end
    $var wire 32 0 data2 [31:0] $end
    $var wire  5 - reg_index1 [4:0] $end
    $var wire  5 . reg_index2 [4:0] $end
    $var wire  1 7# reset $end
    $var wire 32 '" rf[0] [31:0] $end
    $var wire 32 1" rf[10] [31:0] $end
    $var wire 32 2" rf[11] [31:0] $end
    $var wire 32 3" rf[12] [31:0] $end
    $var wire 32 4" rf[13] [31:0] $end
    $var wire 32 5" rf[14] [31:0] $end
    $var wire 32 6" rf[15] [31:0] $end
    $var wire 32 7" rf[16] [31:0] $end
    $var wire 32 8" rf[17] [31:0] $end
    $var wire 32 9" rf[18] [31:0] $end
    $var wire 32 :" rf[19] [31:0] $end
    $var wire 32 (" rf[1] [31:0] $end
    $var wire 32 ;" rf[20] [31:0] $end
    $var wire 32 <" rf[21] [31:0] $end
    $var wire 32 =" rf[22] [31:0] $end
    $var wire 32 >" rf[23] [31:0] $end
    $var wire 32 ?" rf[24] [31:0] $end
    $var wire 32 @" rf[25] [31:0] $end
    $var wire 32 A" rf[26] [31:0] $end
    $var wire 32 B" rf[27] [31:0] $end
    $var wire 32 C" rf[28] [31:0] $end
    $var wire 32 D" rf[29] [31:0] $end
    $var wire 32 )" rf[2] [31:0] $end
    $var wire 32 E" rf[30] [31:0] $end
    $var wire 32 F" rf[31] [31:0] $end
    $var wire 32 *" rf[3] [31:0] $end
    $var wire 32 +" rf[4] [31:0] $end
    $var wire 32 ," rf[5] [31:0] $end
    $var wire 32 -" rf[6] [31:0] $end
    $var wire 32 ." rf[7] [31:0] $end
    $var wire 32 /" rf[8] [31:0] $end
    $var wire 32 0" rf[9] [31:0] $end
    $var wire 32 e! rf_o[0] [31:0] $end
    $var wire 32 o! rf_o[10] [31:0] $end
    $var wire 32 p! rf_o[11] [31:0] $end
    $var wire 32 q! rf_o[12] [31:0] $end
    $var wire 32 r! rf_o[13] [31:0] $end
    $var wire 32 s! rf_o[14] [31:0] $end
    $var wire 32 t! rf_o[15] [31:0] $end
    $var wire 32 u! rf_o[16] [31:0] $end
    $var wire 32 v! rf_o[17] [31:0] $end
    $var wire 32 w! rf_o[18] [31:0] $end
    $var wire 32 x! rf_o[19] [31:0] $end
    $var wire 32 f! rf_o[1] [31:0] $end
    $var wire 32 y! rf_o[20] [31:0] $end
    $var wire 32 z! rf_o[21] [31:0] $end
    $var wire 32 {! rf_o[22] [31:0] $end
    $var wire 32 |! rf_o[23] [31:0] $end
    $var wire 32 }! rf_o[24] [31:0] $end
    $var wire 32 ~! rf_o[25] [31:0] $end
    $var wire 32 !" rf_o[26] [31:0] $end
    $var wire 32 "" rf_o[27] [31:0] $end
    $var wire 32 #" rf_o[28] [31:0] $end
    $var wire 32 $" rf_o[29] [31:0] $end
    $var wire 32 g! rf_o[2] [31:0] $end
    $var wire 32 %" rf_o[30] [31:0] $end
    $var wire 32 &" rf_o[31] [31:0] $end
    $var wire 32 h! rf_o[3] [31:0] $end
    $var wire 32 i! rf_o[4] [31:0] $end
    $var wire 32 j! rf_o[5] [31:0] $end
    $var wire 32 k! rf_o[6] [31:0] $end
    $var wire 32 l! rf_o[7] [31:0] $end
    $var wire 32 m! rf_o[8] [31:0] $end
    $var wire 32 n! rf_o[9] [31:0] $end
    $var wire 32 c! wdata [31:0] $end
    $var wire  1 b! wreg_en $end
    $var wire  5 d! wreg_index [4:0] $end
   $upscope $end
   $scope module exe_stage $end
    $var wire 32 K" Imm [31:0] $end
    $var wire 32 R" Inst [31:0] $end
    $var wire 32 O" PC [31:0] $end
    $var wire 14 J" alu_op [13:0] $end
    $var wire 32 = alu_result [31:0] $end
    $var wire  8 U" branch_op [7:0] $end
    $var wire  1 6# clk $end
    $var wire 213 2 ctrl_temp_bus [212:0] $end
    $var wire 32 = dnpc [31:0] $end
    $var wire 38 : ex_bypass [37:0] $end
    $var wire 213 2 ex_ctrl_bus [212:0] $end
    $var wire  1 < flush $end
    $var wire 194 & id_ctrl_bus [193:0] $end
    $var wire  1 N" inst_valid $end
    $var wire  1 < is_branch $end
    $var wire  1 I" is_sign $end
    $var wire  1 A# left_ready $end
    $var wire  1 1 left_valid $end
    $var wire 32 L" reg1 [31:0] $end
    $var wire 32 M" reg2 [31:0] $end
    $var wire  1 7# reset $end
    $var wire  1 9 right_fire $end
    $var wire  1 A# right_ready $end
    $var wire  1 9 right_valid $end
    $var wire  2 S" select_src1 [1:0] $end
    $var wire  2 T" select_src2 [1:0] $end
    $var wire 32 G" src1 [31:0] $end
    $var wire 32 H" src2 [31:0] $end
    $var wire  1 9 valid $end
    $var wire  1 P" wreg_en $end
    $var wire  5 Q" wreg_index [4:0] $end
    $var wire 32 V" write_data [31:0] $end
    $scope module alu $end
     $var wire 32 G" adder_a [31:0] $end
     $var wire 32 _" adder_b [31:0] $end
     $var wire  1 Z" adder_cin $end
     $var wire  1 `" adder_cout $end
     $var wire 32 ]" adder_result [31:0] $end
     $var wire 14 J" alu_op [13:0] $end
     $var wire 32 = alu_result [31:0] $end
     $var wire 32 G" alu_src1 [31:0] $end
     $var wire 32 H" alu_src2 [31:0] $end
     $var wire  1 W" op_add $end
     $var wire  1 X" op_imm $end
     $var wire  1 Y" op_or $end
     $var wire  1 Z" op_sub $end
     $var wire  1 [" op_xor $end
     $var wire 32 \" or_result [31:0] $end
     $var wire 32 ^" xor_result [31:0] $end
    $upscope $end
   $upscope $end
   $scope module id_stage $end
    $var wire 32 e" Imm [31:0] $end
    $var wire 32 v" Imm12 [31:0] $end
    $var wire  1 z" Imm12_en $end
    $var wire 32 H# Imm14 [31:0] $end
    $var wire 32 x" Imm16 [31:0] $end
    $var wire  1 {" Imm16_en $end
    $var wire 32 w" Imm20 [31:0] $end
    $var wire  1 y" Imm20_en $end
    $var wire 32 I# Imm26 [31:0] $end
    $var wire 32 a" Inst [31:0] $end
    $var wire 32 b" PC [31:0] $end
    $var wire 14 c" alu_op [13:0] $end
    $var wire  8 d" branch_op [7:0] $end
    $var wire 194 & bus_temp [193:0] $end
    $var wire  1 6# clk $end
    $var wire 194 & ctrl_bus [193:0] $end
    $var wire 32 u" decoder_op_19_15 [31:0] $end
    $var wire  4 t" decoder_op_21_20 [3:0] $end
    $var wire 16 s" decoder_op_25_22 [15:0] $end
    $var wire 64 q" decoder_op_31_26 [63:0] $end
    $var wire  1 < flush $end
    $var wire 12 l" i12 [11:0] $end
    $var wire 14 m" i14 [13:0] $end
    $var wire 16 o" i16 [15:0] $end
    $var wire 20 n" i20 [19:0] $end
    $var wire 26 p" i26 [25:0] $end
    $var wire  1 "# inst_add $end
    $var wire  1 )# inst_addi $end
    $var wire  1 J# inst_break $end
    $var wire  1 {" inst_jirl $end
    $var wire  1 %# inst_lu12i $end
    $var wire  1 ## inst_or $end
    $var wire  1 &# inst_ori $end
    $var wire  1 $# inst_pcaddu12i $end
    $var wire  1 '# inst_sub $end
    $var wire  1 !# inst_valid $end
    $var wire  1 (# inst_xor $end
    $var wire  1 E# is_sign $end
    $var wire  1 ~" is_sign_extend $end
    $var wire  1 A# left_ready $end
    $var wire  1 % left_valid $end
    $var wire  5 k" op_19_15 [4:0] $end
    $var wire  2 j" op_21_20 [1:0] $end
    $var wire  4 i" op_25_22 [3:0] $end
    $var wire  6 h" op_31_26 [5:0] $end
    $var wire  5 g" rd [4:0] $end
    $var wire 32 u reg_data1 [31:0] $end
    $var wire 32 u reg_data2 [31:0] $end
    $var wire  5 - reg_index1 [4:0] $end
    $var wire  5 . reg_index2 [4:0] $end
    $var wire  1 7# reset $end
    $var wire  1 1 right_fire $end
    $var wire  1 A# right_ready $end
    $var wire  1 1 right_valid $end
    $var wire  5 - rj [4:0] $end
    $var wire  5 . rk [4:0] $end
    $var wire  2 |" select_src1 [1:0] $end
    $var wire  2 }" select_src2 [1:0] $end
    $var wire 32 u src1 [31:0] $end
    $var wire 32 u src2 [31:0] $end
    $var wire  1 1 valid $end
    $var wire  1 f" wreg_en $end
    $var wire  5 g" wreg_index [4:0] $end
    $scope module decoder_2_4 $end
     $var wire  2 j" in [1:0] $end
     $var wire  4 t" out [3:0] $end
    $upscope $end
    $scope module decoder_4_16 $end
     $var wire  4 i" in [3:0] $end
     $var wire 16 s" out [15:0] $end
    $upscope $end
    $scope module decoder_5_32_1 $end
     $var wire  5 k" in [4:0] $end
     $var wire 32 u" out [31:0] $end
    $upscope $end
    $scope module decoder_6_64_0 $end
     $var wire  6 h" in [5:0] $end
     $var wire 64 q" out [63:0] $end
    $upscope $end
   $upscope $end
   $scope module if_stage $end
    $var wire 32 8# Inst [31:0] $end
    $var wire 32 9# PC [31:0] $end
    $var wire 64 # bus_temp [63:0] $end
    $var wire  1 6# clk $end
    $var wire 64 # data_bus [63:0] $end
    $var wire 32 = dnpc [31:0] $end
    $var wire  1 < flush $end
    $var wire  1 ;# inst_ready $end
    $var wire  1 < is_branch $end
    $var wire  1 :# pc_valid $end
    $var wire  1 7# reset $end
    $var wire  1 % right_fire $end
    $var wire  1 A# right_ready $end
    $var wire  1 % right_valid $end
    $var wire 32 *# temp [31:0] $end
    $var wire  1 % valid $end
   $upscope $end
   $scope module mem_stage $end
    $var wire 32 .# Imm [31:0] $end
    $var wire 32 0# Inst [31:0] $end
    $var wire 32 /# PC [31:0] $end
    $var wire 32 =# addr [31:0] $end
    $var wire 14 ,# alu_op [13:0] $end
    $var wire 32 +# alu_result [31:0] $end
    $var wire 103 > bus_temp [102:0] $end
    $var wire  1 6# clk $end
    $var wire  1 @# en $end
    $var wire  1 -# inst_valid $end
    $var wire  1 A# left_ready $end
    $var wire  1 9 left_valid $end
    $var wire 38 C mem_bypass [37:0] $end
    $var wire 213 2 mem_ctrl_bus [212:0] $end
    $var wire 32 +# mem_result [31:0] $end
    $var wire 32 <# rdata [31:0] $end
    $var wire  1 7# reset $end
    $var wire  1 B right_fire $end
    $var wire  1 A# right_ready $end
    $var wire  1 B right_valid $end
    $var wire 32 3# src1 [31:0] $end
    $var wire 32 4# src2 [31:0] $end
    $var wire  1 B valid $end
    $var wire 103 > wb_ctrl_bus [102:0] $end
    $var wire 32 ># wdata [31:0] $end
    $var wire  4 ?# wmask [3:0] $end
    $var wire  1 2# wreg_en $end
    $var wire  5 1# wreg_index [4:0] $end
   $upscope $end
   $scope module wb_syage $end
    $var wire 103 E bus_temp [102:0] $end
    $var wire  1 6# clk $end
    $var wire  1 A# left_ready $end
    $var wire  1 B left_valid $end
    $var wire 103 > mem_ctrl_bus [102:0] $end
    $var wire  1 7# reset $end
    $var wire  1 5# right_fire $end
    $var wire  1 A# right_ready $end
    $var wire  1 5# right_valid $end
    $var wire  1 5# valid $end
    $var wire 38 I wb_bypass [37:0] $end
    $var wire 103 E wb_ctrl_bus [102:0] $end
   $upscope $end
  $upscope $end
 $upscope $end
$enddefinitions $end


#0
b0000000000000000000000000000000000000000000000000000000000000000 #
0%
b00000000000000000000000000000000000000000000000000000000000000000000000000000000000000000000000000000000000000000000000000000000000000000000000000000000000000000000000000000000000000000000000000 &
b00000 -
b00000 .
b00000000000000000000000000000000 /
b00000000000000000000000000000000 0
01
b000000000000000000000000000000000000000000000000000000000000000000000000000000000000000000000000000000000000000000000000000000000000000000000000000000000000000000000000000000000000000000000000000000000000000000000 2
09
b00000000000000000000000000000000000000 :
0<
b00000000000000000000000000000000 =
b0000000000000000000000000000000000000000000000000000000000000000000000000000000000000000000000000000000 >
0B
b00000000000000000000000000000000000000 C
b0000000000000000000000000000000000000000000000000000000000000000000000000000000000000000000000000000000 E
b00000000000000000000000000000000000000 I
b0000000000000000000000000000000000000000000000000000000000000000000000000000000000000000000000000000000 K
0O
b00000 P
0Q
b00000000000000000000000000000000 R
b00000000000000000000000000000000 S
b00000000000000000000000000000000 T
b00000000000000000000000000000000 U
b00000000000000000000000000000000 V
b00000000000000000000000000000000 W
b00000000000000000000000000000000 X
b00000000000000000000000000000000 Y
b00000000000000000000000000000000 Z
b00000000000000000000000000000000 [
b00000000000000000000000000000000 \
b00000000000000000000000000000000 ]
b00000000000000000000000000000000 ^
b00000000000000000000000000000000 _
b00000000000000000000000000000000 `
b00000000000000000000000000000000 a
b00000000000000000000000000000000 b
b00000000000000000000000000000000 c
b00000000000000000000000000000000 d
b00000000000000000000000000000000 e
b00000000000000000000000000000000 f
b00000000000000000000000000000000 g
b00000000000000000000000000000000 h
b00000000000000000000000000000000 i
b00000000000000000000000000000000 j
b00000000000000000000000000000000 k
b00000000000000000000000000000000 l
b00000000000000000000000000000000 m
b00000000000000000000000000000000 n
b00000000000000000000000000000000 o
b00000000000000000000000000000000 p
b00000000000000000000000000000000 q
b00000000000000000000000000000000 r
b00000000000000000000000000000000 s
b00000000000000000000000000000000 t
b00000000000000000000000000000000 u
b00000000000000000000000000000000 v
0w
0x
0y
0z
0{
0|
b0000000000000000000000000000000000000000000000000000000000000000 }
b0000000000000000000000000000000000000000000000000000000000000000 !!
b0000000000000000000000000000000000000000000000000000000000000000 #!
b0000000000000000000000000000000000000000000000000000000000000000 %!
b0000000000000000000000000000000000000000000000000000000000000000 '!
b0000000000000000000000000000000000000000000000000000000000000000 )!
b0000000000000000000000000000000000000000000000000000000000000000 +!
b0000000000000000000000000000000000000000000000000000000000000000 -!
b0000000000000000000000000000000000000000000000000000000000000000 /!
b0000000000000000000000000000000000000000000000000000000000000000 1!
b0000000000000000000000000000000000000000000000000000000000000000 3!
b0000000000000000000000000000000000000000000000000000000000000000 5!
b0000000000000000000000000000000000000000000000000000000000000000 7!
b0000000000000000000000000000000000000000000000000000000000000000 9!
b0000000000000000000000000000000000000000000000000000000000000000 ;!
b0000000000000000000000000000000000000000000000000000000000000000 =!
b0000000000000000000000000000000000000000000000000000000000000000 ?!
b0000000000000000000000000000000000000000000000000000000000000000 A!
b0000000000000000000000000000000000000000000000000000000000000000 C!
b0000000000000000000000000000000000000000000000000000000000000000 E!
b0000000000000000000000000000000000000000000000000000000000000000 G!
b0000000000000000000000000000000000000000000000000000000000000000 I!
b0000000000000000000000000000000000000000000000000000000000000000 K!
b0000000000000000000000000000000000000000000000000000000000000000 M!
b0000000000000000000000000000000000000000000000000000000000000000 O!
b0000000000000000000000000000000000000000000000000000000000000000 Q!
b0000000000000000000000000000000000000000000000000000000000000000 S!
b0000000000000000000000000000000000000000000000000000000000000000 U!
b0000000000000000000000000000000000000000000000000000000000000000 W!
b0000000000000000000000000000000000000000000000000000000000000000 Y!
b0000000000000000000000000000000000000000000000000000000000000000 [!
b0000000000000000000000000000000000000000000000000000000000000000 ]!
b00000000 _!
b0000000000000000000000000000000000000000000000000000000000000000 `!
0b!
b00000000000000000000000000000000 c!
b00000 d!
b00000000000000000000000000000000 e!
b00000000000000000000000000000000 f!
b00000000000000000000000000000000 g!
b00000000000000000000000000000000 h!
b00000000000000000000000000000000 i!
b00000000000000000000000000000000 j!
b00000000000000000000000000000000 k!
b00000000000000000000000000000000 l!
b00000000000000000000000000000000 m!
b00000000000000000000000000000000 n!
b00000000000000000000000000000000 o!
b00000000000000000000000000000000 p!
b00000000000000000000000000000000 q!
b00000000000000000000000000000000 r!
b00000000000000000000000000000000 s!
b00000000000000000000000000000000 t!
b00000000000000000000000000000000 u!
b00000000000000000000000000000000 v!
b00000000000000000000000000000000 w!
b00000000000000000000000000000000 x!
b00000000000000000000000000000000 y!
b00000000000000000000000000000000 z!
b00000000000000000000000000000000 {!
b00000000000000000000000000000000 |!
b00000000000000000000000000000000 }!
b00000000000000000000000000000000 ~!
b00000000000000000000000000000000 !"
b00000000000000000000000000000000 ""
b00000000000000000000000000000000 #"
b00000000000000000000000000000000 $"
b00000000000000000000000000000000 %"
b00000000000000000000000000000000 &"
b00000000000000000000000000000000 '"
b00000000000000000000000000000000 ("
b00000000000000000000000000000000 )"
b00000000000000000000000000000000 *"
b00000000000000000000000000000000 +"
b00000000000000000000000000000000 ,"
b00000000000000000000000000000000 -"
b00000000000000000000000000000000 ."
b00000000000000000000000000000000 /"
b00000000000000000000000000000000 0"
b00000000000000000000000000000000 1"
b00000000000000000000000000000000 2"
b00000000000000000000000000000000 3"
b00000000000000000000000000000000 4"
b00000000000000000000000000000000 5"
b00000000000000000000000000000000 6"
b00000000000000000000000000000000 7"
b00000000000000000000000000000000 8"
b00000000000000000000000000000000 9"
b00000000000000000000000000000000 :"
b00000000000000000000000000000000 ;"
b00000000000000000000000000000000 <"
b00000000000000000000000000000000 ="
b00000000000000000000000000000000 >"
b00000000000000000000000000000000 ?"
b00000000000000000000000000000000 @"
b00000000000000000000000000000000 A"
b00000000000000000000000000000000 B"
b00000000000000000000000000000000 C"
b00000000000000000000000000000000 D"
b00000000000000000000000000000000 E"
b00000000000000000000000000000000 F"
b00000000000000000000000000000000 G"
b00000000000000000000000000000000 H"
0I"
b00000000000000 J"
b00000000000000000000000000000000 K"
b00000000000000000000000000000000 L"
b00000000000000000000000000000000 M"
0N"
b00000000000000000000000000000000 O"
0P"
b00000 Q"
b00000000000000000000000000000000 R"
b00 S"
b00 T"
b00000000 U"
b00000000000000000000000000000000 V"
0W"
0X"
0Y"
0Z"
0["
b00000000000000000000000000000000 \"
b00000000000000000000000000000000 ]"
b00000000000000000000000000000000 ^"
b00000000000000000000000000000000 _"
0`"
b00000000000000000000000000000000 a"
b00000000000000000000000000000000 b"
b00000000000000 c"
b00000000 d"
b00000000000000000000000000000000 e"
0f"
b00000 g"
b000000 h"
b0000 i"
b00 j"
b00000 k"
b000000000000 l"
b00000000000000 m"
b00000000000000000000 n"
b0000000000000000 o"
b00000000000000000000000000 p"
b0000000000000000000000000000000000000000000000000000000000000001 q"
b0000000000000001 s"
b0001 t"
b00000000000000000000000000000001 u"
b00000000000000000000000000000000 v"
b00000000000000000000000000000000 w"
b00000000000000000000000000000000 x"
0y"
0z"
0{"
b00 |"
b00 }"
0~"
0!#
0"#
0##
0$#
0%#
0&#
0'#
0(#
0)#
b00000000000000000000000000000000 *#
b00000000000000000000000000000000 +#
b00000000000000 ,#
0-#
b00000000000000000000000000000000 .#
b00000000000000000000000000000000 /#
b00000000000000000000000000000000 0#
b00000 1#
02#
b00000000000000000000000000000000 3#
b00000000000000000000000000000000 4#
05#
16#
17#
b00000000000000000000000000000000 8#
b00000000000000000000000000000000 9#
1:#
0;#
b00000000000000000000000000000000 <#
b00000000000000000000000000000000 =#
b00000000000000000000000000000000 >#
b0000 ?#
0@#
1A#
b00000000 B#
b0000000000000000000000000000000000000000000000000000000000000000 C#
0E#
b00000 F#
b00000000000000000000000000000000 G#
b00000000000000000000000000000000 H#
b00000000000000000000000000000000 I#
0J#
#1
06#
#2
b00011100000000000000000000000000 *#
16#
b00011100000000000000000000000000 9#
#3
06#
#4
16#
#5
06#
07#
b00000000000100000000000000010111 8#
1;#
#6
b0001110000000000000000000000000000000000000100000000000000010111 #
1%
b00000000000100000000000000010111 a"
b00011100000000000000000000000000 b"
b00000000000001 c"
1f"
b10111 g"
b01 j"
b010000000000 l"
b00010000000000 m"
b00001000000000000000 n"
b0000010000000000 o"
b00000101110000010000000000 p"
b0010 t"
b00000000000000000000010000000000 v"
b00001000000000000000000000000000 w"
1!#
1"#
b00011100000000000000000000000100 *#
16#
b00011100000000000000000000000100 9#
#7
06#
b00010100001110000000000100100011 8#
#8
b0001110000000000000000000000010000010100001110000000000100100011 #
b00000000000000000000000000110001110000000000000000000000000000000000000100000000000000010111101111000000000000000000000000000000000000000000000000000000000000000000000000000000000000000000000000 &
b01001 -
11
b00000000000000000000000000000000101111 :
b00000000000001 J"
1N"
b00011100000000000000000000000000 O"
1P"
b10111 Q"
b00000000000100000000000000010111 R"
1W"
b00010100001110000000000100100011 a"
b00011100000000000000000000000100 b"
b00000000000010 c"
b00011100000000001001000000000000 e"
b00011 g"
b000101 h"
b11 j"
b10000 k"
b111000000000 l"
b00111000000000 m"
b00011100000000001001 n"
b0000111000000000 o"
b01001000110000111000000000 p"
b0000000000000000000000000000000000000000000000000000000000100000 q"
b1000 t"
b00000000000000010000000000000000 u"
b00000000000000000000111000000000 v"
b00011100000000001001000000000000 w"
1y"
b01 |"
0"#
1%#
b00011100000000000000000000001000 *#
16#
b00011100000000000000000000001000 9#
#9
06#
b00000011100000000000000001100011 8#
#10
b0001110000000000000000000000100000000011100000000000000001100011 #
b00000000010000000000000001010001110000000000000000000000010000010100001110000000000100100011000111000000000000000000000000000000000000000000000000000000000000000000011100000000001001000000000000 &
b00011 -
b000000000000011000000000000000000000000000000000001110000000000000000000000000000000000000100000000000000010111101111000000000000000000000000000000000000000000000000000000000000000000000000000000000000000000000000 2
19
b00011100000000001001000000000000000111 :
b00011100000000001001000000000000 =
b00000000000000000000000000000000101111 C
b00011100000000001001000000000000 u
1w
b00011100000000001001000000000000 G"
b00000000000010 J"
b00011100000000001001000000000000 K"
b00011100000000000000000000000100 O"
b00011 Q"
b00010100001110000000000100100011 R"
b01 S"
b00011100000000001001000000000000 V"
0W"
1X"
b00011100000000001001000000000000 \"
b00011100000000001001000000000000 ]"
b00011100000000001001000000000000 ^"
b00000011100000000000000001100011 a"
b00011100000000000000000000001000 b"
b00000000000100 c"
b00000000000000000000000000000000 e"
b000000 h"
b1110 i"
b00 j"
b00000 k"
b000000000000 l"
b10000000000000 m"
b11000000000000000011 n"
b1110000000000000 o"
b00011000111110000000000000 p"
b0000000000000000000000000000000000000000000000000000000000000001 q"
b0100000000000000 s"
b0001 t"
b00000000000000000000000000000001 u"
b00000000000000000000000000000000 v"
b11000000000000000011000000000000 w"
0y"
1z"
b00 |"
b01 }"
0%#
1&#
b00011100000000000000000000001100 *#
b00000000000001 ,#
1-#
b00011100000000000000000000000000 /#
b00000000000100000000000000010111 0#
b10111 1#
12#
16#
b00011100000000000000000000001100 9#
#11
06#
b00010100001110000000000000011000 8#
