testbench/waveform.vcd
$version Generated by VerilatedVcd $end
$date Sun Apr 16 21:19:03 2023 $end
$timescale 1ps $end

 $scope module TOP $end
  $var wire 32 >! PC [31:0] $end
  $var wire 32 B! addr [31:0] $end
  $var wire  1 ;! clk $end
  $var wire  1 E! en $end
  $var wire 32 =! inst [31:0] $end
  $var wire  1 @! inst_ready $end
  $var wire  1 ?! pc_valid $end
  $var wire 32 A! rdata [31:0] $end
  $var wire  1 <! reset $end
  $var wire 32 C! wdata [31:0] $end
  $var wire  4 D! wmask [3:0] $end
  $scope module Top $end
   $var wire 32 >! PC [31:0] $end
   $var wire 32 B! addr [31:0] $end
   $var wire  1 ;! clk $end
   $var wire 32 I difftest_Inst [31:0] $end
   $var wire 32 J difftest_PC [31:0] $end
   $var wire 103 B difftest_bus [102:0] $end
   $var wire  1 F difftest_inst_valid $end
   $var wire 32 K difftest_result [31:0] $end
   $var wire  1 H difftest_wreg_en $end
   $var wire  5 G difftest_wreg_index [4:0] $end
   $var wire  1 E! en $end
   $var wire 213 1 ex_bus [212:0] $end
   $var wire  1 F! ex_right_ready $end
   $var wire  1 8 ex_right_valid $end
   $var wire 182 & id_bus [181:0] $end
   $var wire  1 F! id_right_ready $end
   $var wire  1 0 id_right_valid $end
   $var wire 64 # if_bus [63:0] $end
   $var wire  1 F! if_right_ready $end
   $var wire  1 % if_right_valid $end
   $var wire 32 =! inst [31:0] $end
   $var wire  1 @! inst_ready $end
   $var wire 103 9 mem_bus [102:0] $end
   $var wire  1 F! mem_right_ready $end
   $var wire  1 = mem_right_valid $end
   $var wire  1 ?! pc_valid $end
   $var wire 32 A! rdata [31:0] $end
   $var wire 32 . reg_data1 [31:0] $end
   $var wire 32 / reg_data2 [31:0] $end
   $var wire  5 , reg_index1 [4:0] $end
   $var wire  5 - reg_index2 [4:0] $end
   $var wire  1 <! reset $end
   $var wire 103 > wb_bus [102:0] $end
   $var wire 32 C! wdata [31:0] $end
   $var wire  4 D! wmask [3:0] $end
   $scope module Regfile $end
    $var wire  1 ;! clk $end
    $var wire 32 . data1 [31:0] $end
    $var wire 32 / data2 [31:0] $end
    $var wire  5 , reg_index1 [4:0] $end
    $var wire  5 - reg_index2 [4:0] $end
    $var wire  1 <! reset $end
    $var wire 32 O rf[0] [31:0] $end
    $var wire 32 Y rf[10] [31:0] $end
    $var wire 32 Z rf[11] [31:0] $end
    $var wire 32 [ rf[12] [31:0] $end
    $var wire 32 \ rf[13] [31:0] $end
    $var wire 32 ] rf[14] [31:0] $end
    $var wire 32 ^ rf[15] [31:0] $end
    $var wire 32 _ rf[16] [31:0] $end
    $var wire 32 ` rf[17] [31:0] $end
    $var wire 32 a rf[18] [31:0] $end
    $var wire 32 b rf[19] [31:0] $end
    $var wire 32 P rf[1] [31:0] $end
    $var wire 32 c rf[20] [31:0] $end
    $var wire 32 d rf[21] [31:0] $end
    $var wire 32 e rf[22] [31:0] $end
    $var wire 32 f rf[23] [31:0] $end
    $var wire 32 g rf[24] [31:0] $end
    $var wire 32 h rf[25] [31:0] $end
    $var wire 32 i rf[26] [31:0] $end
    $var wire 32 j rf[27] [31:0] $end
    $var wire 32 k rf[28] [31:0] $end
    $var wire 32 l rf[29] [31:0] $end
    $var wire 32 Q rf[2] [31:0] $end
    $var wire 32 m rf[30] [31:0] $end
    $var wire 32 n rf[31] [31:0] $end
    $var wire 32 R rf[3] [31:0] $end
    $var wire 32 S rf[4] [31:0] $end
    $var wire 32 T rf[5] [31:0] $end
    $var wire 32 U rf[6] [31:0] $end
    $var wire 32 V rf[7] [31:0] $end
    $var wire 32 W rf[8] [31:0] $end
    $var wire 32 X rf[9] [31:0] $end
    $var wire 32 M wdata [31:0] $end
    $var wire  1 L wreg_en $end
    $var wire  5 N wreg_index [4:0] $end
   $upscope $end
   $scope module exe_stage $end
    $var wire 32 q Imm [31:0] $end
    $var wire 32 x Inst [31:0] $end
    $var wire 32 u PC [31:0] $end
    $var wire 14 p alu_op [13:0] $end
    $var wire 32 y alu_result [31:0] $end
    $var wire  1 ;! clk $end
    $var wire 213 1 ctrl_temp_bus [212:0] $end
    $var wire 213 1 ex_ctrl_bus [212:0] $end
    $var wire 182 & id_ctrl_bus [181:0] $end
    $var wire  1 t inst_valid $end
    $var wire  1 o is_sign $end
    $var wire  1 F! left_ready $end
    $var wire  1 0 left_valid $end
    $var wire  1 <! reset $end
    $var wire  1 8 right_fire $end
    $var wire  1 F! right_ready $end
    $var wire  1 8 right_valid $end
    $var wire 32 r src1 [31:0] $end
    $var wire 32 s src2 [31:0] $end
    $var wire  1 8 valid $end
    $var wire  1 v wreg_en $end
    $var wire  5 w wreg_index [4:0] $end
    $scope module alu $end
     $var wire 32 G! add_result [31:0] $end
     $var wire 32 H! adder_a [31:0] $end
     $var wire 32 I! adder_b [31:0] $end
     $var wire  1 J! adder_cin $end
     $var wire  1 L! adder_cout $end
     $var wire 32 K! adder_result [31:0] $end
     $var wire 14 p alu_op [13:0] $end
     $var wire 32 y alu_result [31:0] $end
     $var wire 32 r alu_src1 [31:0] $end
     $var wire 32 s alu_src2 [31:0] $end
     $var wire  1 z op_add $end
    $upscope $end
   $upscope $end
   $scope module id_stage $end
    $var wire 32 M! Imm [31:0] $end
    $var wire 32 { Inst [31:0] $end
    $var wire 32 | PC [31:0] $end
    $var wire 14 } alu_op [13:0] $end
    $var wire 182 & bus_temp [181:0] $end
    $var wire  1 ;! clk $end
    $var wire 182 & ctrl_bus [181:0] $end
    $var wire 32 +! decoder_op_19_15 [31:0] $end
    $var wire  4 *! decoder_op_21_20 [3:0] $end
    $var wire 16 )! decoder_op_25_22 [15:0] $end
    $var wire 32 (! decoder_op_31_26 [31:0] $end
    $var wire  1 "! inst_add $end
    $var wire  1 O! inst_or $end
    $var wire  1 "! inst_valid $end
    $var wire  1 N! is_sign $end
    $var wire  1 N! is_sign_extend $end
    $var wire  1 F! left_ready $end
    $var wire  1 % left_valid $end
    $var wire  5 '! op_19_15 [4:0] $end
    $var wire  2 &! op_21_20 [1:0] $end
    $var wire  4 %! op_25_22 [3:0] $end
    $var wire  6 $! op_31_26 [5:0] $end
    $var wire  5 #! rd [4:0] $end
    $var wire 32 . reg_data1 [31:0] $end
    $var wire 32 / reg_data2 [31:0] $end
    $var wire  5 , reg_index1 [4:0] $end
    $var wire  5 - reg_index2 [4:0] $end
    $var wire  1 <! reset $end
    $var wire  1 0 right_fire $end
    $var wire  1 F! right_ready $end
    $var wire  1 0 right_valid $end
    $var wire  5 , rj [4:0] $end
    $var wire  5 - rk [4:0] $end
    $var wire  2 ,! select_src1 [1:0] $end
    $var wire  2 -! select_src2 [1:0] $end
    $var wire 32 ~ src1 [31:0] $end
    $var wire 32 !! src2 [31:0] $end
    $var wire  1 0 valid $end
    $var wire  1 "! wreg_en $end
    $var wire  5 #! wreg_index [4:0] $end
    $scope module decoder_2_4 $end
     $var wire  2 &! in [1:0] $end
     $var wire  4 *! out [3:0] $end
    $upscope $end
    $scope module decoder_4_16 $end
     $var wire  4 %! in [3:0] $end
     $var wire 16 )! out [15:0] $end
    $upscope $end
    $scope module decoder_5_32_0 $end
     $var wire  5 .! in [4:0] $end
     $var wire 32 (! out [31:0] $end
    $upscope $end
    $scope module decoder_5_32_1 $end
     $var wire  5 '! in [4:0] $end
     $var wire 32 +! out [31:0] $end
    $upscope $end
   $upscope $end
   $scope module if_stage $end
    $var wire 32 =! Inst [31:0] $end
    $var wire 32 >! PC [31:0] $end
    $var wire 64 # bus_temp [63:0] $end
    $var wire  1 ;! clk $end
    $var wire 64 # data_bus [63:0] $end
    $var wire  1 @! inst_ready $end
    $var wire  1 ?! pc_valid $end
    $var wire  1 <! reset $end
    $var wire  1 % right_fire $end
    $var wire  1 F! right_ready $end
    $var wire  1 % right_valid $end
    $var wire 32 /! temp [31:0] $end
    $var wire  1 % valid $end
   $upscope $end
   $scope module mem_stage $end
    $var wire 32 3! Imm [31:0] $end
    $var wire 32 5! Inst [31:0] $end
    $var wire 32 4! PC [31:0] $end
    $var wire 32 B! addr [31:0] $end
    $var wire 14 1! alu_op [13:0] $end
    $var wire 32 0! alu_result [31:0] $end
    $var wire 103 9 bus_temp [102:0] $end
    $var wire  1 ;! clk $end
    $var wire  1 E! en $end
    $var wire  1 2! inst_valid $end
    $var wire  1 F! left_ready $end
    $var wire  1 8 left_valid $end
    $var wire 213 1 mem_ctrl_bus [212:0] $end
    $var wire 32 0! mem_result [31:0] $end
    $var wire 32 A! rdata [31:0] $end
    $var wire  1 <! reset $end
    $var wire  1 = right_fire $end
    $var wire  1 F! right_ready $end
    $var wire  1 = right_valid $end
    $var wire 32 8! src1 [31:0] $end
    $var wire 32 9! src2 [31:0] $end
    $var wire  1 = valid $end
    $var wire 103 9 wb_ctrl_bus [102:0] $end
    $var wire 32 C! wdata [31:0] $end
    $var wire  4 D! wmask [3:0] $end
    $var wire  1 7! wreg_en $end
    $var wire  5 6! wreg_index [4:0] $end
   $upscope $end
   $scope module wb_syage $end
    $var wire 103 > bus_temp [102:0] $end
    $var wire  1 ;! clk $end
    $var wire  1 F! left_ready $end
    $var wire  1 = left_valid $end
    $var wire 103 9 mem_ctrl_bus [102:0] $end
    $var wire  1 <! reset $end
    $var wire  1 :! right_fire $end
    $var wire  1 F! right_ready $end
    $var wire  1 :! right_valid $end
    $var wire  1 :! valid $end
    $var wire 103 > wb_ctrl_bus [102:0] $end
   $upscope $end
  $upscope $end
 $upscope $end
$enddefinitions $end


#0
b0000000000000000000000000000000000000000000000000000000000000000 #
0%
b00000000000000000000000000000000000000000000000000000000000000000000000000000000000000000000000000000000000000000000000000000000000000000000000000000000000000000000000000000000000000 &
b00000 ,
b00000 -
b00000000000000000000000000000000 .
b00000000000000000000000000000000 /
00
b000000000000000000000000000000000000000000000000000000000000000000000000000000000000000000000000000000000000000000000000000000000000000000000000000000000000000000000000000000000000000000000000000000000000000000000 1
08
b0000000000000000000000000000000000000000000000000000000000000000000000000000000000000000000000000000000 9
0=
b0000000000000000000000000000000000000000000000000000000000000000000000000000000000000000000000000000000 >
b0000000000000000000000000000000000000000000000000000000000000000000000000000000000000000000000000000000 B
0F
b00000 G
0H
b00000000000000000000000000000000 I
b00000000000000000000000000000000 J
b00000000000000000000000000000000 K
0L
b00000000000000000000000000000000 M
b00000 N
b00000000000000000000000000000000 O
b00000000000000000000000000000000 P
b00000000000000000000000000000000 Q
b00000000000000000000000000000000 R
b00000000000000000000000000000000 S
b00000000000000000000000000000000 T
b00000000000000000000000000000000 U
b00000000000000000000000000000000 V
b00000000000000000000000000000000 W
b00000000000000000000000000000000 X
b00000000000000000000000000000000 Y
b00000000000000000000000000000000 Z
b00000000000000000000000000000000 [
b00000000000000000000000000000000 \
b00000000000000000000000000000000 ]
b00000000000000000000000000000000 ^
b00000000000000000000000000000000 _
b00000000000000000000000000000000 `
b00000000000000000000000000000000 a
b00000000000000000000000000000000 b
b00000000000000000000000000000000 c
b00000000000000000000000000000000 d
b00000000000000000000000000000000 e
b00000000000000000000000000000000 f
b00000000000000000000000000000000 g
b00000000000000000000000000000000 h
b00000000000000000000000000000000 i
b00000000000000000000000000000000 j
b00000000000000000000000000000000 k
b00000000000000000000000000000000 l
b00000000000000000000000000000000 m
b00000000000000000000000000000000 n
0o
b00000000000000 p
b00000000000000000000000000000000 q
b00000000000000000000000000000000 r
b00000000000000000000000000000000 s
0t
b00000000000000000000000000000000 u
0v
b00000 w
b00000000000000000000000000000000 x
b00000000000000000000000000000000 y
0z
b00000000000000000000000000000000 {
b00000000000000000000000000000000 |
b00000000000000 }
b00000000000000000000000000000000 ~
b00000000000000000000000000000000 !!
0"!
b00000 #!
b000000 $!
b0000 %!
b00 &!
b00000 '!
b00000000000000000000000000000001 (!
b0000000000000001 )!
b0001 *!
b00000000000000000000000000000001 +!
b11 ,!
b11 -!
b00000 .!
b00000000000000000000000000000000 /!
b00000000000000000000000000000000 0!
b00000000000000 1!
02!
b00000000000000000000000000000000 3!
b00000000000000000000000000000000 4!
b00000000000000000000000000000000 5!
b00000 6!
07!
b00000000000000000000000000000000 8!
b00000000000000000000000000000000 9!
0:!
1;!
1<!
b00000000000000000000000000000000 =!
b00000000000000000000000000000000 >!
1?!
0@!
b00000000000000000000000000000000 A!
b00000000000000000000000000000000 B!
b00000000000000000000000000000000 C!
b0000 D!
0E!
1F!
b00000000000000000000000000000000 G!
b00000000000000000000000000000000 H!
b00000000000000000000000000000000 I!
0J!
b00000000000000000000000000000000 K!
0L!
b00000000000000000000000000000000 M!
0N!
0O!
#1
0;!
#2
1;!
#3
0;!
#4
1;!
#5
0;!
0<!
b00000000000100000000000000010001 =!
1@!
#6
b0000000000000000000000000000000000000000000100000000000000010001 #
1%
b00000000000100000000000000010001 {
b00000000000001 }
1"!
b10001 #!
b01 &!
b0010 *!
b00 ,!
b00 -!
1;!
#7
0;!
#8
b00000000000000110000000000000000000000000000000000000000000100000000000000010001100011000000000000000000000000000000000000000000000000000000000000000000000000000000000000000000000000 &
10
b00000000000001 p
1t
1v
b10001 w
b00000000000100000000000000010001 x
1z
b00000000000000000000000000000100 /!
1;!
b00000000000000000000000000000100 >!
#9
0;!
b00000000000000000000000000000000 =!
#10
b0000000000000000000000000000010000000000000000000000000000000000 #
b000000000000011000000000000000000000000000000000000000000000000000000000000000000000000000100000000000000010001100011000000000000000000000000000000000000000000000000000000000000000000000000000000000000000000000000 1
18
b00000000000000000000000000000000 {
b00000000000000000000000000000100 |
b00000000000000 }
b00000000000000000000000000000100 ~
b00000000000000000000000000000100 !!
0"!
b00000 #!
b00 &!
b0001 *!
b11 ,!
b11 -!
b00000000000000000000000000001000 /!
b00000000000001 1!
12!
b00000000000100000000000000010001 5!
b10001 6!
17!
1;!
b00000000000000000000000000001000 >!
#11
0;!
#12
b0000000000000000000000000000100000000000000000000000000000000000 #
b00000000000000000000000000000000000000000000010000000000000000000000000000000000000000000000000000000000000000000001000000000000000000000000000000010000000000000000000000000000000000 &
b1100011000000000001000000000000000100010000000000000000000000000000000000000000000000000000000000000000 9
1=
b00000000000000 p
b00000000000000000000000000000100 r
b00000000000000000000000000000100 s
0t
b00000000000000000000000000000100 u
0v
b00000 w
b00000000000000000000000000000000 x
0z
b00000000000000000000000000001000 |
b00000000000000000000000000001000 ~
b00000000000000000000000000001000 !!
b00000000000000000000000000001100 /!
1;!
b00000000000000000000000000001100 >!
#13
0;!
#14
b0000000000000000000000000000110000000000000000000000000000000000 #
b00000000000000000000000000000000000000000000100000000000000000000000000000000000000000000000000000000000000000000010000000000000000000000000000000100000000000000000000000000000000000 &
b000000000000000000000000000000000000000000000000000000000000000000000000000010000000000000000000000000000000000000000000000000000000000000000000001000000000000000000000000000000010000000000000000000000000000000000 1
b1100011000000000001000000000000000100010000000000000000000000000000000000000000000000000000000000000000 >
1L
b10001 N
b00000000000000000000000000001000 r
b00000000000000000000000000001000 s
b00000000000000000000000000001000 u
b00000000000000000000000000001100 |
b00000000000000000000000000001100 ~
b00000000000000000000000000001100 !!
b00000000000000000000000000010000 /!
b00000000000000 1!
02!
b00000000000000000000000000000100 4!
b00000000000000000000000000000000 5!
b00000 6!
07!
b00000000000000000000000000000100 8!
b00000000000000000000000000000100 9!
1:!
1;!
b00000000000000000000000000010000 >!
#15
0;!
#16
b0000000000000000000000000001000000000000000000000000000000000000 #
b00000000000000000000000000000000000000000000110000000000000000000000000000000000000000000000000000000000000000000011000000000000000000000000000000110000000000000000000000000000000000 &
b000000000000000000000000000000000000000000000000000000000000000000000000000100000000000000000000000000000000000000000000000000000000000000000000010000000000000000000000000000000100000000000000000000000000000000000 1
b0000000000000000000000000000000000000000000000000000000000000000000010000000000000000000000000000000000 9
b1100011000000000001000000000000000100010000000000000000000000000000000000000000000000000000000000000000 B
1F
b10001 G
1H
b00000000000100000000000000010001 I
b00000000000000000000000000001100 r
b00000000000000000000000000001100 s
b00000000000000000000000000001100 u
b00000000000000000000000000010000 |
b00000000000000000000000000010000 ~
b00000000000000000000000000010000 !!
b00000000000000000000000000010100 /!
b00000000000000000000000000001000 4!
b00000000000000000000000000001000 8!
b00000000000000000000000000001000 9!
1;!
b00000000000000000000000000010100 >!
#17
0;!
#18
b0000000000000000000000000001010000000000000000000000000000000000 #
b00000000000000000000000000000000000000000001000000000000000000000000000000000000000000000000000000000000000000000100000000000000000000000000000001000000000000000000000000000000000000 &
b000000000000000000000000000000000000000000000000000000000000000000000000000110000000000000000000000000000000000000000000000000000000000000000000011000000000000000000000000000000110000000000000000000000000000000000 1
b0000000000000000000000000000000000000000000000000000000000000000000100000000000000000000000000000000000 9
b0000000000000000000000000000000000000000000000000000000000000000000010000000000000000000000000000000000 >
0L
b00000 N
b00000000000000000000000000010000 r
b00000000000000000000000000010000 s
b00000000000000000000000000010000 u
b00000000000000000000000000010100 |
b00000000000000000000000000010100 ~
b00000000000000000000000000010100 !!
b00000000000000000000000000011000 /!
b00000000000000000000000000001100 4!
b00000000000000000000000000001100 8!
b00000000000000000000000000001100 9!
1;!
b00000000000000000000000000011000 >!
#19
0;!
#20
b0000000000000000000000000001100000000000000000000000000000000000 #
b00000000000000000000000000000000000000000001010000000000000000000000000000000000000000000000000000000000000000000101000000000000000000000000000001010000000000000000000000000000000000 &
b000000000000000000000000000000000000000000000000000000000000000000000000001000000000000000000000000000000000000000000000000000000000000000000000100000000000000000000000000000001000000000000000000000000000000000000 1
b0000000000000000000000000000000000000000000000000000000000000000000110000000000000000000000000000000000 9
b0000000000000000000000000000000000000000000000000000000000000000000100000000000000000000000000000000000 >
b0000000000000000000000000000000000000000000000000000000000000000000010000000000000000000000000000000000 B
0F
b00000 G
0H
b00000000000000000000000000000000 I
b00000000000000000000000000000100 J
b00000000000000000000000000010100 r
b00000000000000000000000000010100 s
b00000000000000000000000000010100 u
b00000000000000000000000000011000 |
b00000000000000000000000000011000 ~
b00000000000000000000000000011000 !!
b00000000000000000000000000011100 /!
b00000000000000000000000000010000 4!
b00000000000000000000000000010000 8!
b00000000000000000000000000010000 9!
1;!
b00000000000000000000000000011100 >!
#21
0;!
#22
b0000000000000000000000000001110000000000000000000000000000000000 #
b00000000000000000000000000000000000000000001100000000000000000000000000000000000000000000000000000000000000000000110000000000000000000000000000001100000000000000000000000000000000000 &
b000000000000000000000000000000000000000000000000000000000000000000000000001010000000000000000000000000000000000000000000000000000000000000000000101000000000000000000000000000001010000000000000000000000000000000000 1
b0000000000000000000000000000000000000000000000000000000000000000001000000000000000000000000000000000000 9
b0000000000000000000000000000000000000000000000000000000000000000000110000000000000000000000000000000000 >
b0000000000000000000000000000000000000000000000000000000000000000000100000000000000000000000000000000000 B
b00000000000000000000000000001000 J
b00000000000000000000000000011000 r
b00000000000000000000000000011000 s
b00000000000000000000000000011000 u
b00000000000000000000000000011100 |
b00000000000000000000000000011100 ~
b00000000000000000000000000011100 !!
b00000000000000000000000000100000 /!
b00000000000000000000000000010100 4!
b00000000000000000000000000010100 8!
b00000000000000000000000000010100 9!
1;!
b00000000000000000000000000100000 >!
#23
0;!
#24
b0000000000000000000000000010000000000000000000000000000000000000 #
b00000000000000000000000000000000000000000001110000000000000000000000000000000000000000000000000000000000000000000111000000000000000000000000000001110000000000000000000000000000000000 &
b000000000000000000000000000000000000000000000000000000000000000000000000001100000000000000000000000000000000000000000000000000000000000000000000110000000000000000000000000000001100000000000000000000000000000000000 1
b0000000000000000000000000000000000000000000000000000000000000000001010000000000000000000000000000000000 9
b0000000000000000000000000000000000000000000000000000000000000000001000000000000000000000000000000000000 >
b0000000000000000000000000000000000000000000000000000000000000000000110000000000000000000000000000000000 B
b00000000000000000000000000001100 J
b00000000000000000000000000011100 r
b00000000000000000000000000011100 s
b00000000000000000000000000011100 u
b00000000000000000000000000100000 |
b00000000000000000000000000100000 ~
b00000000000000000000000000100000 !!
b00000000000000000000000000100100 /!
b00000000000000000000000000011000 4!
b00000000000000000000000000011000 8!
b00000000000000000000000000011000 9!
1;!
b00000000000000000000000000100100 >!
#25
0;!
#26
b0000000000000000000000000010010000000000000000000000000000000000 #
b00000000000000000000000000000000000000000010000000000000000000000000000000000000000000000000000000000000000000001000000000000000000000000000000010000000000000000000000000000000000000 &
b000000000000000000000000000000000000000000000000000000000000000000000000001110000000000000000000000000000000000000000000000000000000000000000000111000000000000000000000000000001110000000000000000000000000000000000 1
b0000000000000000000000000000000000000000000000000000000000000000001100000000000000000000000000000000000 9
b0000000000000000000000000000000000000000000000000000000000000000001010000000000000000000000000000000000 >
b0000000000000000000000000000000000000000000000000000000000000000001000000000000000000000000000000000000 B
b00000000000000000000000000010000 J
b00000000000000000000000000100000 r
b00000000000000000000000000100000 s
b00000000000000000000000000100000 u
b00000000000000000000000000100100 |
b00000000000000000000000000100100 ~
b00000000000000000000000000100100 !!
b00000000000000000000000000101000 /!
b00000000000000000000000000011100 4!
b00000000000000000000000000011100 8!
b00000000000000000000000000011100 9!
1;!
b00000000000000000000000000101000 >!
#27
0;!
#28
b0000000000000000000000000010100000000000000000000000000000000000 #
b00000000000000000000000000000000000000000010010000000000000000000000000000000000000000000000000000000000000000001001000000000000000000000000000010010000000000000000000000000000000000 &
b000000000000000000000000000000000000000000000000000000000000000000000000010000000000000000000000000000000000000000000000000000000000000000000001000000000000000000000000000000010000000000000000000000000000000000000 1
b0000000000000000000000000000000000000000000000000000000000000000001110000000000000000000000000000000000 9
b0000000000000000000000000000000000000000000000000000000000000000001100000000000000000000000000000000000 >
b0000000000000000000000000000000000000000000000000000000000000000001010000000000000000000000000000000000 B
b00000000000000000000000000010100 J
b00000000000000000000000000100100 r
b00000000000000000000000000100100 s
b00000000000000000000000000100100 u
b00000000000000000000000000101000 |
b00000000000000000000000000101000 ~
b00000000000000000000000000101000 !!
b00000000000000000000000000101100 /!
b00000000000000000000000000100000 4!
b00000000000000000000000000100000 8!
b00000000000000000000000000100000 9!
1;!
b00000000000000000000000000101100 >!
#29
0;!
#30
b0000000000000000000000000010110000000000000000000000000000000000 #
b00000000000000000000000000000000000000000010100000000000000000000000000000000000000000000000000000000000000000001010000000000000000000000000000010100000000000000000000000000000000000 &
b000000000000000000000000000000000000000000000000000000000000000000000000010010000000000000000000000000000000000000000000000000000000000000000001001000000000000000000000000000010010000000000000000000000000000000000 1
b0000000000000000000000000000000000000000000000000000000000000000010000000000000000000000000000000000000 9
b0000000000000000000000000000000000000000000000000000000000000000001110000000000000000000000000000000000 >
b0000000000000000000000000000000000000000000000000000000000000000001100000000000000000000000000000000000 B
b00000000000000000000000000011000 J
b00000000000000000000000000101000 r
b00000000000000000000000000101000 s
b00000000000000000000000000101000 u
b00000000000000000000000000101100 |
b00000000000000000000000000101100 ~
b00000000000000000000000000101100 !!
b00000000000000000000000000110000 /!
b00000000000000000000000000100100 4!
b00000000000000000000000000100100 8!
b00000000000000000000000000100100 9!
1;!
b00000000000000000000000000110000 >!
